<?xml version="1.0" encoding="utf-8"?>
<svg xmlns="http://www.w3.org/2000/svg" xmlns:xlink="http://www.w3.org/1999/xlink" style="display:none">

    <g id="icon-phone" viewBox="0 0 21 19">
        <path fill-rule="evenodd"  d="M19.300,13.761 L16.516,11.181 C16.087,10.729 14.946,10.163 13.590,10.955 C13.518,11.000 13.471,11.023 13.423,11.068 L12.305,12.132 C11.163,11.475 8.665,9.801 7.285,7.356 L8.046,6.632 C8.213,6.474 8.879,5.840 8.903,4.912 C8.927,4.460 8.808,3.781 8.070,3.079 L5.334,0.499 C5.287,0.454 5.263,0.431 5.215,0.409 C4.668,0.047 3.312,-0.406 2.099,0.612 C1.980,0.703 -0.661,2.875 0.148,6.519 C0.172,6.836 0.315,7.742 1.028,9.122 C2.123,11.181 3.978,13.331 6.595,15.504 C6.738,15.617 10.116,18.378 14.018,18.921 C14.137,18.944 14.494,19.012 14.993,19.012 C16.064,19.012 17.801,18.740 19.180,17.247 C19.418,17.066 19.894,16.567 20.013,15.821 C20.085,15.368 20.013,14.666 19.347,13.874 C19.347,13.806 19.323,13.784 19.300,13.761 ZM17.967,15.843 C17.896,15.889 17.872,15.911 17.801,15.979 C16.445,17.518 14.470,17.134 14.399,17.134 C14.375,17.134 14.351,17.134 14.327,17.111 C10.997,16.635 7.880,14.123 7.856,14.101 C2.313,9.484 2.051,6.406 2.051,6.338 C2.051,6.270 2.051,6.225 2.027,6.157 C1.409,3.577 3.241,2.015 3.336,1.948 C3.645,1.699 3.931,1.744 4.073,1.835 L6.738,4.347 C6.928,4.528 6.999,4.686 6.999,4.822 C6.999,5.025 6.809,5.229 6.761,5.274 C6.738,5.297 6.738,5.297 6.714,5.320 L5.453,6.542 C5.168,6.813 5.096,7.198 5.263,7.560 C7.166,11.656 11.829,13.965 12.020,14.078 C12.376,14.259 12.828,14.191 13.114,13.920 L14.684,12.471 C14.874,12.380 15.041,12.358 15.136,12.449 C15.160,12.471 15.136,12.449 15.184,12.494 L17.919,15.029 C18.110,15.255 18.300,15.594 17.967,15.843 Z"/>
    </g>

    <g id="icon-door" viewBox="0 0 23 27">
        <path fill-rule="evenodd" d="M22.581,13.375 L17.338,13.375 L18.599,14.627 L17.230,15.987 L13.627,12.409 L17.230,8.832 L18.599,10.192 L17.338,11.445 L22.581,11.445 L22.581,13.375 ZM14.417,2.865 L10.277,2.865 L13.104,3.851 L13.104,21.969 L14.417,21.969 L14.417,15.217 L16.359,17.146 L16.359,23.883 L13.089,23.883 L13.089,26.902 L0.630,23.607 L0.630,0.936 L16.359,0.936 L16.359,7.674 L14.417,9.603 L14.417,2.865 ZM2.572,22.246 L11.177,24.197 L11.177,5.212 L2.572,3.259 L2.572,22.246 Z"/>
    </g>

    <g id="icon-heart" viewBox="0 0 26 24">
        <path d="M23.9,2.6C22.4,1,20.4,0.1,18.2,0c-1.9,0-3.7,0.6-5.1,1.8c-2.6-2.1-6.1-2.4-9-0.7c-2.2,1.3-3.7,3.6-4,6.1
		c-0.3,2.5,0.5,5,2.3,6.8l9.4,9.5c0.4,0.4,0.8,0.6,1.3,0.6c0.5,0,1-0.2,1.3-0.6l9.2-9.4C26.7,10.9,26.8,5.8,23.9,2.6z M22.2,12.7
		L13,22l-9.3-9.4c-1.3-1.4-2-3.3-1.7-5.2C2.2,5.5,3.3,3.8,5,2.8C6,2.2,7,2,8,2c1.6,0,3.1,0.6,4.3,1.8c0.4,0.4,1,0.4,1.4,0
		C14.9,2.6,16.5,2,18.2,2c1.7,0,3.2,0.7,4.3,2C24.7,6.4,24.6,10.3,22.2,12.7z"/>
    </g>

    <g id="icon-cart" data-size="30 25">
        <path fill-rule="evenodd"  fill="rgb(51, 51, 51)" d="M26.114,16.219 L11.462,16.219 L11.773,17.156 L25.546,17.156 L25.546,19.156 L10.349,19.156 L9.591,16.864 L4.659,1.999 L0.886,1.999 L0.886,-0.001 L6.081,-0.001 L7.046,2.908 L29.910,2.908 L26.114,16.219 ZM11.354,4.909 L7.829,4.909 L8.509,6.815 L11.354,6.815 L11.354,4.909 ZM11.354,8.815 L9.222,8.815 L9.866,10.624 L11.354,10.624 L11.354,8.815 ZM11.354,12.624 L10.579,12.624 L11.148,14.219 L11.354,14.219 L11.354,12.624 ZM24.011,14.219 L24.627,14.219 L25.081,12.624 L24.011,12.624 L24.011,14.219 ZM24.011,10.624 L25.652,10.624 L26.168,8.815 L24.011,8.815 L24.011,10.624 ZM16.693,4.909 L13.330,4.909 L13.330,6.815 L16.693,6.815 L16.693,4.909 ZM16.693,8.815 L13.330,8.815 L13.330,10.624 L16.693,10.624 L16.693,8.815 ZM16.693,12.624 L13.330,12.624 L13.330,14.219 L16.693,14.219 L16.693,12.624 ZM22.034,4.909 L18.670,4.909 L18.670,6.815 L22.034,6.815 L22.034,4.909 ZM22.034,8.815 L18.670,8.815 L18.670,10.624 L22.034,10.624 L22.034,8.815 ZM22.034,12.624 L18.670,12.624 L18.670,14.219 L22.034,14.219 L22.034,12.624 ZM24.011,6.815 L26.738,6.815 L27.282,4.909 L24.011,4.909 L24.011,6.815 ZM14.200,20.228 C15.500,20.228 16.558,21.299 16.558,22.614 C16.558,23.929 15.500,24.999 14.200,24.999 C12.899,24.999 11.841,23.929 11.841,22.614 C11.841,21.299 12.899,20.228 14.200,20.228 ZM14.200,22.998 C14.410,22.998 14.581,22.826 14.581,22.614 C14.581,22.401 14.410,22.227 14.200,22.227 C13.990,22.227 13.818,22.401 13.818,22.614 C13.818,22.826 13.990,22.998 14.200,22.998 ZM22.632,20.228 C23.932,20.228 24.989,21.299 24.989,22.614 C24.989,23.929 23.932,24.999 22.632,24.999 C21.331,24.999 20.273,23.929 20.273,22.614 C20.273,21.299 21.331,20.228 22.632,20.228 ZM22.632,22.998 C22.842,22.998 23.012,22.826 23.012,22.614 C23.012,22.401 22.842,22.227 22.632,22.227 C22.421,22.227 22.250,22.401 22.250,22.614 C22.250,22.826 22.421,22.998 22.632,22.998 Z"/>
    </g>

    <g id="icon-selection" data-size="33 33">
        <path fill-rule="evenodd"  d="M32.387,13.007 L30.025,13.007 L30.025,11.413 C30.025,11.096 29.788,10.834 29.470,10.805 L27.191,10.593 C26.945,9.700 26.586,8.839 26.123,8.031 L27.585,6.270 C27.789,6.026 27.773,5.672 27.548,5.448 L24.562,2.463 C24.338,2.239 23.984,2.221 23.740,2.425 L21.972,3.892 C21.164,3.432 20.303,3.076 19.412,2.833 L19.200,0.550 C19.171,0.234 18.909,-0.004 18.591,-0.004 L14.370,-0.004 C14.052,-0.004 13.791,0.234 13.762,0.550 L13.549,2.842 C12.659,3.087 11.801,3.445 10.999,3.906 L9.226,2.435 C8.983,2.233 8.629,2.249 8.403,2.473 L5.418,5.458 C5.194,5.683 5.178,6.036 5.381,6.280 L6.857,8.058 C6.400,8.862 6.044,9.719 5.802,10.606 L3.507,10.819 C3.190,10.849 2.951,11.110 2.951,11.428 L2.951,13.007 L0.608,13.007 C0.271,13.007 -0.004,13.281 -0.004,13.618 L-0.004,16.411 C-0.004,16.616 0.097,16.805 0.267,16.919 L10.759,25.977 C11.066,26.209 11.346,26.768 11.346,27.149 L11.346,32.387 C11.346,32.724 11.620,32.998 11.958,32.998 L21.038,32.998 C21.375,32.998 21.649,32.724 21.649,32.387 L21.649,27.149 C21.649,26.768 21.929,26.209 22.232,25.979 L32.729,16.919 C32.899,16.805 32.999,16.616 32.999,16.411 L32.999,13.618 C32.999,13.281 32.725,13.007 32.387,13.007 ZM4.174,11.985 L6.345,11.784 C6.608,11.759 6.825,11.570 6.884,11.313 C7.127,10.257 7.543,9.251 8.122,8.324 C8.262,8.100 8.243,7.812 8.074,7.610 L6.677,5.928 L8.874,3.732 L10.550,5.124 C10.755,5.293 11.043,5.313 11.266,5.171 C12.192,4.589 13.198,4.170 14.257,3.924 C14.514,3.863 14.702,3.646 14.726,3.385 L14.927,1.218 L18.033,1.218 L18.234,3.376 C18.258,3.640 18.448,3.857 18.705,3.916 C19.767,4.159 20.776,4.577 21.705,5.157 C21.930,5.297 22.217,5.277 22.420,5.109 L24.092,3.721 L26.288,5.918 L24.905,7.583 C24.735,7.787 24.716,8.075 24.857,8.299 C25.441,9.229 25.862,10.238 26.108,11.300 C26.168,11.557 26.386,11.747 26.647,11.770 L28.801,11.971 L28.801,13.007 L23.369,13.007 C23.100,9.449 20.124,6.634 16.498,6.634 C12.871,6.634 9.896,9.449 9.627,13.007 L4.174,13.007 L4.174,11.985 ZM21.270,13.007 C21.008,10.605 18.969,8.729 16.498,8.729 C14.026,8.729 11.988,10.605 11.725,13.007 L10.850,13.007 C11.115,10.123 13.545,7.856 16.498,7.856 C19.451,7.856 21.881,10.123 22.146,13.007 L21.270,13.007 ZM20.025,13.007 L12.971,13.007 C13.227,11.283 14.704,9.952 16.498,9.952 C18.292,9.952 19.769,11.283 20.025,13.007 ZM20.427,27.149 L20.427,31.775 L12.570,31.775 L12.570,27.149 C12.570,27.008 12.549,26.861 12.520,26.713 L20.476,26.713 C20.447,26.861 20.427,27.008 20.427,27.149 ZM21.540,24.972 L21.517,24.987 C21.338,25.120 21.173,25.294 21.027,25.490 L11.969,25.490 C11.823,25.295 11.660,25.121 11.481,24.989 L2.614,17.023 L10.212,17.023 L10.319,17.023 L30.382,17.023 L21.540,24.972 ZM31.777,15.800 L10.319,15.800 L10.212,15.800 L1.220,15.800 L1.220,14.230 L31.777,14.230 L31.777,15.800 Z"/>
    </g>

    <g id="icon-loop" data-size="16 16">
        <path fill-rule="evenodd"  d="M15.508,13.896 L11.122,9.511 C11.776,8.572 12.162,7.432 12.162,6.201 C12.162,2.998 9.565,0.400 6.362,0.400 C3.157,0.400 0.560,2.998 0.560,6.201 C0.560,9.405 3.157,12.003 6.362,12.003 C7.592,12.003 8.732,11.617 9.671,10.962 L14.057,15.348 L15.508,13.896 ZM6.362,9.949 C4.295,9.949 2.613,8.268 2.613,6.201 C2.613,4.134 4.295,2.453 6.362,2.453 C8.428,2.453 10.110,4.134 10.110,6.201 C10.110,8.268 8.428,9.949 6.362,9.949 Z"/>
    </g>

    <g id="icon-adv-hand" viewBox="0 0 70 48">
        <path fill-rule="evenodd"  d="M60.373,27.893 L59.661,26.033 C58.511,26.840 57.497,27.694 57.031,28.248 C58.100,29.106 58.590,29.649 59.023,30.404 C59.616,31.434 59.940,33.623 59.002,35.046 C58.288,36.129 56.726,36.974 55.176,37.041 C55.299,38.096 55.062,39.139 54.472,39.987 C53.617,41.217 51.819,42.237 50.174,41.706 C49.799,41.584 49.389,41.413 48.985,41.223 C49.077,42.025 48.981,42.896 48.464,43.686 C47.871,44.592 46.839,45.261 45.703,45.475 C44.798,45.646 43.967,45.500 43.358,45.066 C43.009,44.819 42.259,44.325 41.495,43.829 C41.537,44.643 41.399,45.544 40.878,46.400 C40.171,47.563 38.990,47.987 37.828,47.987 C36.910,47.987 36.004,47.723 35.350,47.349 C35.135,47.226 33.370,46.063 30.950,44.415 L30.518,44.901 C29.975,45.509 29.227,45.872 28.410,45.922 C28.347,45.926 28.282,45.928 28.219,45.928 C27.471,45.928 26.758,45.660 26.194,45.163 C25.697,44.726 25.374,44.151 25.238,43.518 C24.962,43.592 24.680,43.642 24.394,43.642 C23.624,43.642 22.852,43.373 22.231,42.827 C21.614,42.285 21.243,41.546 21.157,40.736 C20.824,40.875 20.472,40.970 20.100,40.993 C20.032,40.997 19.965,40.998 19.897,40.998 C19.099,40.998 18.338,40.712 17.736,40.182 C17.083,39.607 16.694,38.813 16.640,37.946 C16.636,37.880 16.647,37.816 16.647,37.749 C16.641,37.750 16.636,37.750 16.629,37.750 C15.832,37.750 15.070,37.463 14.468,36.934 C13.815,36.359 13.426,35.565 13.372,34.698 C13.319,33.831 13.609,32.996 14.187,32.346 L14.506,31.986 C14.496,31.973 14.481,31.957 14.471,31.944 C13.593,30.811 12.554,29.614 11.638,28.560 C11.080,27.918 10.631,27.398 10.263,26.956 L9.800,28.374 L0.606,25.428 L0.603,25.425 L-0.002,25.231 L0.186,24.679 L0.312,24.263 L7.733,1.525 L17.531,4.688 L16.816,6.878 C17.364,7.257 18.247,7.802 19.077,8.024 C20.657,8.443 25.570,8.507 26.362,8.013 C26.513,7.885 26.716,7.730 26.941,7.566 C26.955,7.556 26.976,7.539 26.988,7.531 L26.990,7.532 C28.295,6.587 30.590,5.221 31.991,4.900 C33.550,4.542 36.899,4.732 39.208,5.576 C41.165,6.291 45.264,7.013 46.645,6.973 C46.915,6.966 47.250,6.964 47.630,6.960 C48.869,6.950 50.976,6.930 52.255,6.693 L51.462,4.621 L61.088,0.975 L69.999,24.248 L60.373,27.893 ZM27.518,43.673 C27.731,43.861 28.001,43.950 28.288,43.937 C28.572,43.920 28.832,43.794 29.020,43.583 L29.290,43.280 L30.630,41.774 L31.016,41.340 C31.205,41.128 31.299,40.856 31.281,40.573 C31.264,40.292 31.137,40.033 30.925,39.846 C30.722,39.669 30.471,39.581 30.221,39.581 C29.925,39.581 29.633,39.701 29.422,39.938 L28.872,40.556 L27.531,42.064 L27.427,42.181 C27.238,42.392 27.144,42.664 27.162,42.946 C27.179,43.228 27.306,43.487 27.518,43.673 ZM23.554,41.338 C24.079,41.797 24.882,41.751 25.345,41.229 L25.727,40.801 L27.068,39.294 L27.411,38.908 C27.636,38.656 27.749,38.331 27.728,37.995 C27.707,37.658 27.556,37.350 27.302,37.127 C27.068,36.921 26.772,36.809 26.463,36.809 C26.437,36.809 26.411,36.811 26.384,36.813 C26.046,36.833 25.736,36.983 25.511,37.235 L24.991,37.821 L23.652,39.326 L23.446,39.558 C23.221,39.810 23.108,40.134 23.129,40.470 C23.150,40.807 23.300,41.115 23.554,41.338 ZM19.060,38.693 C19.314,38.916 19.641,39.029 19.978,39.008 C20.317,38.987 20.626,38.836 20.851,38.585 L21.549,37.800 L22.885,36.297 L23.360,35.765 C23.823,35.244 23.774,34.446 23.250,33.985 C23.009,33.773 22.709,33.669 22.410,33.669 C22.059,33.669 21.710,33.813 21.459,34.094 L20.845,34.785 L19.513,36.282 L18.951,36.913 C18.727,37.165 18.614,37.489 18.635,37.825 C18.656,38.162 18.807,38.470 19.060,38.693 ZM15.793,35.444 C16.047,35.667 16.370,35.783 16.711,35.759 C17.049,35.739 17.359,35.588 17.584,35.336 L17.873,35.011 L18.858,33.904 C18.976,33.771 19.059,33.616 19.112,33.450 C19.158,33.304 19.184,33.150 19.174,32.992 C19.153,32.655 19.002,32.347 18.749,32.124 C18.507,31.913 18.207,31.807 17.908,31.807 C17.701,31.807 17.501,31.873 17.315,31.973 C17.186,32.041 17.060,32.118 16.958,32.232 L15.924,33.395 L15.684,33.664 C15.459,33.917 15.347,34.241 15.368,34.577 C15.388,34.914 15.539,35.222 15.793,35.444 ZM9.018,4.031 L2.521,23.935 L8.515,25.870 L13.020,12.072 C13.127,11.742 13.232,11.422 13.333,11.111 L13.483,10.651 C14.190,8.487 14.694,6.943 14.694,6.943 L14.848,6.470 L15.013,5.966 L9.018,4.031 ZM18.561,9.944 C17.696,9.713 16.834,9.253 16.176,8.840 L16.065,9.179 C14.798,13.065 11.627,22.779 11.011,24.665 C11.337,25.172 12.331,26.318 13.150,27.260 C14.029,28.272 15.012,29.411 15.886,30.523 C17.102,29.568 18.870,29.578 20.073,30.634 C20.501,31.010 20.801,31.486 20.982,32.009 C22.135,31.455 23.559,31.603 24.575,32.496 C25.301,33.135 25.660,34.027 25.663,34.923 C25.857,34.875 26.057,34.840 26.262,34.827 C27.143,34.775 27.974,35.063 28.627,35.638 C29.241,36.178 29.589,36.902 29.686,37.654 C30.575,37.498 31.522,37.718 32.250,38.357 C32.862,38.895 33.226,39.639 33.277,40.452 C33.326,41.265 33.056,42.047 32.514,42.656 L32.514,42.658 L32.288,42.911 C34.509,44.427 36.119,45.495 36.346,45.625 C36.927,45.958 38.566,46.359 39.167,45.371 C39.868,44.219 39.298,42.773 39.059,42.267 L34.559,39.467 C34.091,39.177 33.950,38.563 34.242,38.098 C34.534,37.631 35.151,37.491 35.620,37.783 L37.002,38.642 L36.956,38.563 L40.367,40.735 C40.500,40.820 43.639,42.822 44.519,43.449 C44.635,43.531 44.917,43.599 45.331,43.521 C45.924,43.410 46.496,43.048 46.789,42.603 C47.261,41.879 46.909,40.771 46.529,39.904 L39.509,35.878 C39.031,35.604 38.866,34.995 39.143,34.519 C39.417,34.045 40.029,33.880 40.507,34.156 L47.809,38.343 C47.810,38.345 47.811,38.345 47.813,38.346 L48.015,38.460 C48.624,38.805 49.890,39.524 50.791,39.815 C51.385,40.005 52.340,39.558 52.829,38.856 C53.279,38.209 53.311,37.318 52.961,36.478 L43.943,31.166 C43.469,30.886 43.311,30.277 43.593,29.804 C43.874,29.330 44.487,29.175 44.962,29.455 L54.211,34.904 C55.270,35.395 56.851,34.684 57.330,33.958 C57.780,33.274 57.572,31.884 57.288,31.391 C56.963,30.825 56.597,30.412 55.171,29.323 L55.167,29.320 C55.164,29.318 55.160,29.315 55.157,29.313 L54.730,28.986 L54.730,28.983 C48.550,24.222 39.436,17.259 38.510,16.716 C37.008,15.835 34.800,14.996 33.732,15.108 C32.375,15.251 31.823,15.452 30.782,16.502 C29.431,17.868 26.315,19.672 24.215,19.374 C23.341,19.248 18.994,18.519 19.206,16.473 C19.301,15.542 19.420,14.377 20.921,13.033 C21.342,12.658 22.063,11.983 22.865,11.236 C23.202,10.922 23.518,10.628 23.823,10.345 C21.646,10.396 19.285,10.136 18.561,9.944 ZM47.647,8.949 C47.281,8.952 46.956,8.955 46.695,8.961 C45.091,8.999 40.748,8.257 38.518,7.442 C36.626,6.751 33.697,6.547 32.440,6.837 C31.424,7.069 29.311,8.301 28.123,9.167 C27.680,9.472 25.606,11.406 24.233,12.686 C23.418,13.446 22.685,14.129 22.259,14.510 C21.418,15.264 21.292,15.788 21.223,16.401 C21.676,16.705 23.060,17.199 24.500,17.405 C25.707,17.587 28.213,16.264 29.358,15.108 C30.802,13.648 31.851,13.307 33.520,13.131 C35.396,12.930 38.179,14.214 39.525,15.003 C40.739,15.715 51.950,24.329 55.476,27.043 C56.276,26.032 57.621,25.000 58.744,24.240 C56.822,19.230 53.743,11.205 52.747,8.625 C51.426,8.891 49.583,8.932 47.647,8.949 ZM59.931,3.540 L54.042,5.772 L61.530,25.328 L67.420,23.097 L59.931,3.540 ZM65.410,21.964 C65.245,22.470 64.892,22.881 64.416,23.123 C64.131,23.267 63.822,23.339 63.512,23.339 C63.303,23.339 63.095,23.307 62.891,23.242 C61.843,22.902 61.267,21.779 61.608,20.736 C61.773,20.232 62.125,19.821 62.601,19.579 C63.077,19.338 63.620,19.297 64.127,19.460 C64.633,19.623 65.046,19.975 65.290,20.447 C65.532,20.921 65.575,21.459 65.410,21.964 ZM6.648,23.426 C6.308,23.426 5.959,23.339 5.630,23.148 C4.999,22.781 4.604,22.063 4.651,21.338 C4.737,19.980 6.058,19.154 7.265,19.546 C8.315,19.885 8.890,21.009 8.550,22.051 C8.277,22.891 7.491,23.426 6.648,23.426 Z"/>
    </g>

    <g id="icon-adv-service" viewBox="0 0 41 47">
        <path fill-rule="evenodd" d="M24.157,46.999 L17.801,46.999 L0.974,46.999 L0.974,40.407 C0.974,37.788 2.890,35.470 5.740,34.638 L12.080,32.553 L14.141,31.876 L14.141,31.041 L14.141,28.436 C12.876,27.036 11.756,25.319 10.873,23.441 L7.142,24.289 L5.222,15.751 L6.460,15.470 C6.443,15.174 6.431,14.878 6.431,14.581 C6.431,5.996 12.397,-0.000 20.937,-0.000 C29.480,-0.000 35.444,5.996 35.444,14.581 C35.444,14.872 35.434,15.162 35.417,15.452 L36.737,15.751 L34.816,24.289 L33.099,23.898 C32.654,25.382 31.525,28.086 28.959,29.354 C28.575,29.544 28.173,29.684 27.761,29.794 L27.785,31.019 L27.802,31.871 L29.878,32.553 L36.235,34.643 C39.076,35.479 40.984,37.794 40.984,40.407 L40.984,46.999 L24.157,46.999 ZM20.979,33.881 L25.795,31.000 L25.781,30.306 C24.235,31.482 22.587,32.194 20.979,32.194 C19.366,32.194 17.697,31.480 16.132,30.280 L16.132,30.982 L20.979,33.881 ZM20.193,37.450 L21.766,37.450 L21.014,36.594 L20.944,36.594 L20.193,37.450 ZM23.676,34.594 L22.519,35.286 L24.235,37.239 L24.865,36.479 L27.124,33.751 L25.841,33.330 L25.841,33.300 L23.676,34.594 ZM21.954,44.999 L21.389,39.450 L20.570,39.450 L20.005,44.999 L21.954,44.999 ZM18.283,34.594 L16.132,33.309 L16.132,33.325 L14.834,33.751 L17.205,36.613 L17.723,37.239 L19.439,35.286 L18.283,34.594 ZM12.799,34.420 L6.328,36.548 C4.303,37.140 2.964,38.687 2.964,40.407 L2.964,44.999 L18.005,44.999 L18.569,39.450 L18.436,39.450 L17.679,40.311 L12.799,34.420 ZM10.895,15.085 C11.044,15.015 11.218,14.931 11.407,14.834 C11.430,14.822 11.456,14.809 11.480,14.796 C11.662,14.703 11.857,14.598 12.065,14.480 C12.082,14.471 12.097,14.463 12.113,14.453 C12.330,14.330 12.560,14.190 12.798,14.040 C12.840,14.014 12.883,13.986 12.925,13.958 C13.154,13.810 13.390,13.652 13.631,13.479 C13.648,13.467 13.665,13.456 13.682,13.444 C13.931,13.263 14.186,13.065 14.441,12.857 C14.494,12.814 14.546,12.769 14.599,12.725 C14.848,12.515 15.098,12.296 15.344,12.060 C15.353,12.050 15.363,12.042 15.373,12.033 C15.621,11.792 15.864,11.533 16.102,11.265 C16.158,11.202 16.213,11.138 16.267,11.074 C16.505,10.795 16.738,10.506 16.956,10.197 L17.468,9.472 L18.243,9.898 C18.651,10.121 19.061,10.345 19.472,10.567 C19.561,10.615 19.649,10.663 19.739,10.711 C20.131,10.922 20.527,11.128 20.925,11.332 C21.037,11.389 21.148,11.447 21.260,11.503 C21.642,11.695 22.029,11.880 22.418,12.061 C22.549,12.121 22.680,12.183 22.813,12.242 C23.197,12.414 23.587,12.578 23.981,12.735 C24.118,12.790 24.256,12.843 24.394,12.895 C24.794,13.047 25.201,13.189 25.612,13.319 C25.746,13.362 25.881,13.401 26.016,13.441 C26.445,13.568 26.880,13.684 27.322,13.783 C27.440,13.809 27.560,13.831 27.679,13.855 C28.151,13.951 28.629,14.035 29.119,14.093 C29.204,14.104 29.292,14.109 29.378,14.118 C29.911,14.175 30.451,14.215 31.008,14.222 C31.016,14.222 31.024,14.221 31.032,14.221 C30.650,8.602 26.954,5.282 20.979,5.282 C14.705,5.282 10.943,8.945 10.894,15.086 C10.894,15.085 10.894,15.085 10.895,15.085 ZM7.669,17.357 C7.654,17.359 7.639,17.359 7.625,17.360 L8.645,21.896 L10.012,21.586 L9.820,20.732 C9.549,19.872 9.326,18.997 9.174,18.111 L9.108,18.142 L9.018,17.169 L8.969,16.951 L8.146,17.137 C8.010,17.246 7.854,17.333 7.669,17.357 ZM33.314,21.896 L34.347,17.304 C34.301,17.305 34.260,17.319 34.213,17.314 C34.046,17.292 33.903,17.220 33.774,17.129 L32.990,16.951 L32.897,17.362 C32.745,18.525 32.484,19.684 32.120,20.816 L31.947,21.586 L33.314,21.896 ZM33.013,14.162 L33.055,14.161 L33.055,14.914 L33.428,14.999 C33.433,14.859 33.455,14.722 33.455,14.581 C33.455,5.890 27.168,2.000 20.937,2.000 C13.451,2.000 8.421,7.056 8.421,14.581 C8.421,14.728 8.444,14.872 8.449,15.018 L8.916,14.912 C9.040,7.733 13.633,3.283 20.979,3.283 C28.067,3.283 32.590,7.425 33.013,14.162 ZM31.155,23.456 L31.069,23.436 C30.470,24.703 29.768,25.899 28.977,26.974 C30.205,25.957 30.850,24.427 31.155,23.456 ZM30.258,20.021 L30.905,17.147 C30.948,16.838 31.003,16.528 31.026,16.222 C31.008,16.222 30.991,16.219 30.973,16.219 C30.392,16.211 29.826,16.174 29.270,16.118 C29.208,16.111 29.143,16.108 29.082,16.101 C28.543,16.041 28.018,15.956 27.502,15.857 C27.416,15.840 27.329,15.826 27.244,15.808 C26.743,15.705 26.254,15.583 25.772,15.449 C25.683,15.423 25.593,15.400 25.504,15.373 C25.027,15.233 24.561,15.080 24.102,14.915 C24.018,14.885 23.935,14.855 23.851,14.824 C23.392,14.653 22.941,14.473 22.499,14.284 C22.424,14.252 22.351,14.220 22.277,14.187 C21.829,13.992 21.388,13.789 20.956,13.579 C20.896,13.551 20.839,13.522 20.779,13.493 C20.337,13.276 19.901,13.055 19.472,12.830 C19.433,12.810 19.395,12.790 19.357,12.769 C18.913,12.536 18.474,12.300 18.043,12.065 C17.874,12.276 17.700,12.479 17.524,12.676 C17.466,12.740 17.407,12.800 17.349,12.862 C17.229,12.992 17.109,13.122 16.987,13.245 C16.918,13.316 16.847,13.381 16.777,13.449 C16.664,13.558 16.553,13.668 16.440,13.772 C16.365,13.841 16.290,13.905 16.215,13.971 C16.105,14.068 15.996,14.167 15.887,14.259 C15.810,14.324 15.734,14.383 15.657,14.446 C15.549,14.534 15.442,14.623 15.335,14.706 C15.256,14.767 15.179,14.823 15.101,14.881 C14.997,14.960 14.893,15.039 14.790,15.113 C14.711,15.169 14.636,15.220 14.558,15.274 C14.458,15.344 14.356,15.416 14.256,15.482 C14.182,15.533 14.109,15.579 14.035,15.626 C13.936,15.691 13.838,15.755 13.742,15.814 C13.670,15.859 13.601,15.899 13.532,15.942 C13.438,15.999 13.343,16.056 13.252,16.109 C13.183,16.149 13.118,16.185 13.052,16.222 C12.964,16.272 12.877,16.322 12.793,16.368 C12.730,16.402 12.670,16.433 12.609,16.466 C12.528,16.509 12.446,16.553 12.369,16.592 C12.312,16.621 12.260,16.647 12.207,16.674 C12.132,16.711 12.058,16.748 11.989,16.781 C11.936,16.807 11.888,16.829 11.838,16.852 C11.778,16.881 11.717,16.910 11.662,16.935 C11.610,16.958 11.565,16.978 11.518,16.999 C11.472,17.019 11.427,17.040 11.386,17.057 C11.339,17.078 11.299,17.094 11.257,17.112 C11.229,17.124 11.199,17.136 11.174,17.147 C11.130,17.164 11.096,17.178 11.063,17.191 L11.743,20.209 C12.748,23.303 14.541,26.171 16.548,28.033 C17.633,29.039 18.775,29.743 19.892,30.033 L22.076,30.033 C22.460,29.934 22.847,29.770 23.232,29.578 C22.740,29.428 22.234,29.236 21.717,29.010 C21.494,29.062 21.261,29.099 21.013,29.099 C19.663,29.099 18.605,28.263 18.605,27.196 C18.605,26.128 19.663,25.292 21.013,25.292 C22.364,25.292 23.422,26.128 23.422,27.196 C23.422,27.311 23.404,27.422 23.380,27.531 C24.121,27.790 24.811,27.936 25.462,27.991 C27.495,26.083 29.276,23.145 30.258,20.021 ZM38.995,40.407 C38.995,38.687 37.656,37.140 35.662,36.558 L35.631,36.548 L29.160,34.420 L24.280,40.311 L23.523,39.450 L23.390,39.450 L23.954,44.999 L38.995,44.999 L38.995,40.407 ZM24.911,21.757 C24.087,21.757 23.419,21.085 23.419,20.257 C23.419,19.428 24.087,18.757 24.911,18.757 C25.736,18.757 26.404,19.428 26.404,20.257 C26.404,21.085 25.736,21.757 24.911,21.757 ZM17.046,21.757 C16.221,21.757 15.553,21.085 15.553,20.257 C15.553,19.428 16.221,18.757 17.046,18.757 C17.870,18.757 18.538,19.428 18.538,20.257 C18.538,21.085 17.870,21.757 17.046,21.757 Z"/>
    </g>

    <g id="icon-adv-shipping" viewBox="0 0 63 47">
        <path fill-rule="evenodd" d="M55.737,42.407 L55.737,38.812 L55.344,38.812 L52.954,38.812 C52.976,39.037 53.000,39.263 53.000,39.487 C53.000,43.628 49.633,46.998 45.496,46.998 C41.360,46.998 37.993,43.628 37.993,39.487 C37.993,39.264 38.018,39.038 38.038,38.812 L37.110,38.812 L37.110,42.407 L22.071,42.407 L22.071,38.812 L21.439,38.812 C21.461,39.037 21.484,39.263 21.484,39.487 C21.484,43.628 18.118,46.998 13.981,46.998 C9.844,46.998 6.478,43.628 6.478,39.487 C6.478,39.263 6.502,39.037 6.524,38.812 L6.343,38.812 L6.343,42.407 L-0.002,42.407 L-0.002,36.812 L1.287,36.812 L1.287,31.564 L-0.002,31.564 L-0.002,-0.002 L35.999,-0.002 L35.999,29.564 L36.996,29.564 L36.996,6.572 L52.133,6.572 L61.146,18.032 L61.208,36.812 L63.000,36.812 L63.000,42.407 L55.737,42.407 ZM45.496,44.998 C48.532,44.998 51.002,42.526 51.002,39.487 C51.002,39.028 50.938,38.555 50.813,38.080 L50.810,38.069 C50.170,35.657 47.985,33.974 45.496,33.974 C43.008,33.974 40.822,35.657 40.182,38.069 C40.055,38.547 39.991,39.025 39.991,39.487 C39.991,42.526 42.461,44.998 45.496,44.998 ZM24.069,38.812 L24.069,40.406 L35.113,40.406 L35.113,38.812 L35.113,35.837 C35.113,35.479 34.821,35.188 34.463,35.188 L24.718,35.188 C24.360,35.188 24.069,35.479 24.069,35.837 L24.069,38.812 ZM13.981,44.998 C17.017,44.998 19.488,42.526 19.488,39.487 C19.488,39.028 19.423,38.555 19.298,38.081 L19.295,38.069 C18.656,35.657 16.471,33.974 13.981,33.974 C11.492,33.974 9.307,35.657 8.668,38.069 C8.540,38.547 8.476,39.024 8.476,39.487 C8.476,42.526 10.946,44.998 13.981,44.998 ZM1.995,40.406 L4.345,40.406 L4.345,38.812 L1.995,38.812 L1.995,40.406 ZM34.002,1.998 L1.995,1.998 L1.995,29.564 L34.002,29.564 L34.002,1.998 ZM35.999,31.564 L3.284,31.564 L3.284,36.812 L6.343,36.812 L6.976,36.812 C7.007,36.730 7.053,36.656 7.087,36.575 C7.155,36.415 7.230,36.260 7.308,36.106 C7.409,35.906 7.516,35.712 7.634,35.522 C7.726,35.374 7.823,35.230 7.924,35.090 C8.053,34.912 8.189,34.744 8.332,34.578 C8.446,34.447 8.560,34.319 8.682,34.196 C8.837,34.041 8.999,33.898 9.166,33.757 C9.297,33.647 9.426,33.537 9.563,33.435 C9.743,33.303 9.932,33.187 10.122,33.072 C10.265,32.986 10.404,32.896 10.551,32.820 C10.758,32.712 10.975,32.625 11.192,32.537 C11.338,32.479 11.479,32.412 11.628,32.362 C11.876,32.280 12.133,32.223 12.390,32.167 C12.520,32.138 12.645,32.097 12.777,32.075 C13.171,32.011 13.573,31.974 13.981,31.974 C14.390,31.974 14.792,32.011 15.186,32.075 C15.317,32.097 15.442,32.138 15.572,32.167 C15.830,32.223 16.087,32.280 16.335,32.362 C16.484,32.411 16.624,32.478 16.769,32.537 C16.987,32.624 17.205,32.712 17.413,32.820 C17.559,32.895 17.696,32.985 17.837,33.070 C18.030,33.186 18.220,33.303 18.401,33.436 C18.537,33.537 18.664,33.645 18.793,33.754 C18.962,33.896 19.127,34.041 19.283,34.198 C19.403,34.319 19.516,34.445 19.627,34.574 C19.773,34.742 19.911,34.913 20.041,35.094 C20.141,35.232 20.236,35.373 20.327,35.519 C20.446,35.710 20.555,35.906 20.656,36.110 C20.734,36.262 20.808,36.415 20.875,36.574 C20.909,36.655 20.955,36.729 20.987,36.812 L22.071,36.812 L22.071,35.837 L22.071,33.188 L24.718,33.188 L34.463,33.188 L37.110,33.188 L37.110,35.837 L37.110,36.812 L38.491,36.812 C38.521,36.732 38.565,36.661 38.598,36.584 C38.668,36.418 38.745,36.259 38.825,36.101 C38.925,35.903 39.030,35.712 39.147,35.525 C39.240,35.375 39.336,35.231 39.439,35.090 C39.568,34.912 39.705,34.742 39.847,34.577 C39.961,34.447 40.074,34.320 40.195,34.197 C40.351,34.041 40.515,33.896 40.685,33.754 C40.814,33.646 40.941,33.537 41.075,33.436 C41.258,33.303 41.449,33.186 41.643,33.069 C41.783,32.984 41.919,32.895 42.064,32.820 C42.273,32.712 42.492,32.624 42.712,32.535 C42.855,32.477 42.995,32.411 43.142,32.362 C43.392,32.279 43.650,32.222 43.909,32.166 C44.037,32.137 44.161,32.097 44.292,32.075 C44.686,32.011 45.087,31.974 45.496,31.974 C45.905,31.974 46.306,32.011 46.700,32.075 C46.832,32.097 46.957,32.138 47.088,32.167 C47.345,32.223 47.602,32.280 47.849,32.362 C47.999,32.412 48.140,32.479 48.285,32.537 C48.503,32.626 48.719,32.712 48.926,32.820 C49.074,32.896 49.212,32.986 49.355,33.073 C49.546,33.188 49.734,33.303 49.913,33.435 C50.052,33.537 50.181,33.648 50.312,33.758 C50.478,33.898 50.640,34.040 50.794,34.194 C50.917,34.319 51.032,34.448 51.147,34.581 C51.289,34.744 51.423,34.911 51.550,35.086 C51.654,35.230 51.752,35.377 51.847,35.528 C51.962,35.712 52.065,35.901 52.164,36.096 C52.246,36.258 52.324,36.418 52.395,36.586 C52.427,36.663 52.471,36.733 52.501,36.812 L53.798,36.812 L49.741,31.564 L36.996,31.564 L35.999,31.564 ZM59.151,18.727 L51.164,8.572 L38.994,8.572 L38.994,29.564 L50.721,29.564 L56.324,36.812 L59.211,36.812 L59.151,18.727 ZM61.002,38.812 L57.870,38.812 L57.734,38.812 L57.734,40.406 L61.002,40.406 L61.002,38.812 ZM49.448,22.146 L40.522,22.146 L40.522,9.987 L50.329,9.987 L57.734,19.699 L57.734,24.435 L51.159,24.435 L49.448,22.146 ZM55.737,22.435 L55.737,20.375 L49.340,11.987 L42.520,11.987 L42.520,20.146 L50.449,20.146 L52.159,22.435 L55.737,22.435 ZM13.981,35.450 C16.204,35.450 18.014,37.261 18.014,39.487 C18.014,41.712 16.204,43.523 13.981,43.523 C11.758,43.523 9.949,41.712 9.949,39.487 C9.949,37.261 11.758,35.450 13.981,35.450 ZM13.981,41.523 C15.103,41.523 16.017,40.610 16.017,39.487 C16.017,38.364 15.103,37.449 13.981,37.449 C12.860,37.449 11.947,38.364 11.947,39.487 C11.947,40.610 12.860,41.523 13.981,41.523 ZM45.496,35.450 C47.720,35.450 49.528,37.261 49.528,39.487 C49.528,41.712 47.720,43.523 45.496,43.523 C43.273,43.523 41.464,41.712 41.464,39.487 C41.464,37.261 43.273,35.450 45.496,35.450 ZM45.496,41.523 C46.618,41.523 47.530,40.610 47.530,39.487 C47.530,38.364 46.618,37.449 45.496,37.449 C44.375,37.449 43.461,38.364 43.461,39.487 C43.461,40.610 44.375,41.523 45.496,41.523 Z"/>
    </g>

    <g id="icon-adv-term" viewBox="0 0 44 49">
        <path fill-rule="evenodd"  d="M41.184,46.456 L41.184,48.998 L35.768,48.998 L35.768,29.137 C35.768,28.742 35.870,28.353 36.063,28.011 L37.478,25.491 L37.478,22.578 L39.474,22.578 L39.474,25.492 L40.891,28.014 C41.083,28.356 41.184,28.744 41.184,29.137 L41.184,44.333 C41.622,44.086 42.003,43.646 42.003,43.283 L42.003,36.015 L44.000,36.015 L44.000,43.283 C44.000,44.723 42.681,46.137 41.184,46.456 ZM39.188,29.137 C39.188,29.087 39.175,29.037 39.149,28.992 L38.476,27.793 L37.803,28.992 C37.777,29.038 37.765,29.087 37.765,29.137 L37.765,36.210 L39.188,36.210 L39.188,29.137 ZM39.188,46.525 L39.188,44.525 L39.188,38.211 L37.765,38.211 L37.765,46.998 L39.188,46.998 L39.188,46.525 ZM-0.003,2.348 L22.289,2.348 C22.350,1.043 23.420,-0.001 24.737,-0.001 L24.934,-0.001 C26.251,-0.001 27.321,1.043 27.382,2.348 L33.402,2.348 L33.402,48.998 L-0.003,48.998 L-0.003,2.348 ZM24.934,1.998 L24.737,1.998 C24.523,1.998 24.350,2.149 24.297,2.348 L25.374,2.348 C25.322,2.149 25.148,1.998 24.934,1.998 ZM1.993,46.998 L31.405,46.998 L31.405,4.348 L24.274,4.348 L24.274,6.643 C24.274,6.899 24.482,7.107 24.737,7.107 L24.934,7.107 C25.189,7.107 25.397,6.899 25.397,6.643 L25.397,5.581 C25.397,5.028 25.844,4.581 26.396,4.581 C26.947,4.581 27.394,5.028 27.394,5.581 L27.394,6.643 C27.394,8.002 26.291,9.107 24.934,9.107 L24.737,9.107 C23.380,9.107 22.277,8.002 22.277,6.643 L22.277,4.348 L1.993,4.348 L1.993,46.998 ZM27.235,13.733 L5.934,13.733 L5.934,11.733 L27.235,11.733 L27.235,13.733 ZM14.799,41.149 L5.681,41.149 L5.681,39.149 L14.799,39.149 L14.799,41.149 ZM27.099,29.750 L16.064,29.750 L16.064,27.751 L27.099,27.751 L27.099,29.750 ZM23.706,35.028 C26.202,35.028 28.234,37.063 28.234,39.565 C28.234,42.066 26.202,44.101 23.706,44.101 C21.208,44.101 19.176,42.066 19.176,39.565 C19.176,37.063 21.208,35.028 23.706,35.028 ZM23.706,42.101 C25.101,42.101 26.237,40.963 26.237,39.565 C26.237,38.165 25.101,37.028 23.706,37.028 C22.309,37.028 21.173,38.165 21.173,39.565 C21.173,40.963 22.309,42.101 23.706,42.101 ZM5.934,29.750 L5.934,27.751 L13.050,27.751 L13.050,29.750 L5.934,29.750 ZM5.934,23.745 L27.235,23.745 L27.235,25.747 L5.934,25.747 L5.934,23.745 ZM5.934,21.742 L5.934,19.742 L9.931,19.742 L9.931,21.742 L5.934,21.742 ZM5.934,15.737 L16.968,15.737 L16.968,17.737 L5.934,17.737 L5.934,15.737 ZM13.050,19.742 L27.235,19.742 L27.235,21.742 L13.050,21.742 L13.050,19.742 ZM20.175,15.737 L27.235,15.737 L27.235,17.737 L20.175,17.737 L20.175,15.737 Z"/>
    </g>

    <g id="icon-adv-rhombus" viewBox="0 0 88 88">
        <path fill-rule="evenodd"  stroke="rgb(254, 196, 110)" stroke-width="8px" stroke-linecap="butt" stroke-linejoin="miter" fill="none" d="M42.280,4.789 L79.770,42.280 L42.280,79.770 L4.790,42.280 L42.280,4.789 Z"/>
    </g>

    <g id="icon-product-chair" viewBox="0 0 42 71">
        <path fill-rule="evenodd"  d="M40.024,70.991 L41.976,70.624 L36.871,43.273 L40.090,43.273 L40.090,35.438 L36.531,35.438 L36.531,29.173 L39.450,-0.014 L3.489,-0.014 L6.408,29.173 L6.408,35.438 L2.849,35.438 L2.849,43.273 L6.069,43.273 L0.963,70.624 L2.915,70.991 L8.090,43.273 L34.850,43.273 L40.024,70.991 ZM37.255,1.981 L34.640,28.124 L8.300,28.124 L5.685,1.981 L37.255,1.981 ZM8.394,30.118 L34.546,30.118 L34.546,35.438 L8.394,35.438 L8.394,30.118 ZM4.835,37.434 L38.105,37.434 L38.105,41.278 L4.835,41.278 L4.835,37.434 Z"/>

    </g>

    <g id="icon-product-table" viewBox="0 0 79 73">
        <path fill-rule="evenodd" d="M75.009,31.338 L75.009,70.352 L75.009,72.911 L73.016,72.911 L73.016,70.352 L47.760,70.352 L47.760,72.911 L45.767,72.911 L45.767,70.352 L45.767,31.338 L7.219,31.338 L7.219,72.407 L5.225,72.407 L5.225,31.338 L-0.009,31.338 L-0.009,23.431 L15.890,23.431 L14.044,10.489 L26.314,10.489 L24.467,23.431 L78.997,23.431 L78.997,31.338 L75.009,31.338 ZM47.760,68.339 L73.016,68.339 L73.016,57.263 L47.760,57.263 L47.760,68.339 ZM47.760,55.250 L73.016,55.250 L73.016,44.112 L47.760,44.112 L47.760,55.250 ZM47.760,42.099 L73.016,42.099 L73.016,31.338 L47.760,31.338 L47.760,42.099 ZM16.345,12.503 L17.719,22.131 L22.638,22.131 L24.012,12.503 L16.345,12.503 ZM77.003,25.445 L1.985,25.445 L1.985,29.325 L45.767,29.325 L75.009,29.325 L77.003,29.325 L77.003,25.445 ZM56.898,35.964 L63.877,35.964 L63.877,37.977 L56.898,37.977 L56.898,35.964 ZM56.898,48.832 L63.877,48.832 L63.877,50.845 L56.898,50.845 L56.898,48.832 ZM56.898,61.983 L63.877,61.983 L63.877,63.997 L56.898,63.997 L56.898,61.983 ZM25.163,7.089 C24.114,7.089 23.262,6.227 23.262,5.168 C23.262,4.110 24.114,3.248 25.163,3.248 C26.212,3.248 27.064,4.110 27.064,5.168 C27.064,6.227 26.212,7.089 25.163,7.089 ZM25.163,5.074 C25.112,5.074 25.070,5.116 25.070,5.168 C25.070,5.271 25.256,5.271 25.256,5.168 C25.256,5.116 25.214,5.074 25.163,5.074 ZM20.023,9.547 C18.976,9.547 18.123,8.685 18.123,7.627 C18.123,6.568 18.976,5.707 20.023,5.707 C21.072,5.707 21.924,6.568 21.924,7.627 C21.924,8.685 21.072,9.547 20.023,9.547 ZM20.023,7.533 C19.972,7.533 19.931,7.575 19.931,7.627 C19.931,7.730 20.116,7.730 20.116,7.627 C20.116,7.575 20.075,7.533 20.023,7.533 ZM20.023,4.764 C18.976,4.764 18.123,3.903 18.123,2.845 C18.123,1.786 18.976,0.924 20.023,0.924 C21.072,0.924 21.924,1.786 21.924,2.845 C21.924,3.903 21.072,4.764 20.023,4.764 ZM20.023,2.751 C19.972,2.751 19.931,2.793 19.931,2.845 C19.931,2.948 20.116,2.948 20.116,2.845 C20.116,2.793 20.075,2.751 20.023,2.751 ZM15.194,7.089 C14.146,7.089 13.293,6.227 13.293,5.168 C13.293,4.110 14.146,3.248 15.194,3.248 C16.243,3.248 17.095,4.110 17.095,5.168 C17.095,6.227 16.243,7.089 15.194,7.089 ZM15.194,5.074 C15.143,5.074 15.101,5.116 15.101,5.168 C15.101,5.271 15.287,5.271 15.287,5.168 C15.287,5.116 15.245,5.074 15.194,5.074 Z"/>
    </g>

    <g id="icon-product-pedestal" viewBox="0 0 60 72">
        <path fill-rule="evenodd" d="M57.251,7.853 L57.251,22.498 L57.251,67.603 L53.616,67.603 L53.616,71.998 L48.432,71.998 L48.432,67.603 L30.984,67.603 L11.526,67.603 L11.526,71.998 L6.342,71.998 L6.342,67.603 L2.708,67.603 L2.708,22.498 L2.708,20.499 L2.708,7.853 L-0.016,7.853 L-0.016,-0.002 L59.974,-0.002 L59.974,7.853 L57.251,7.853 ZM50.443,69.999 L51.606,69.999 L51.606,67.603 L50.443,67.603 L50.443,69.999 ZM30.984,65.603 L48.432,65.603 L53.616,65.603 L55.240,65.603 L55.240,22.498 L30.984,22.498 L30.984,65.603 ZM8.353,69.999 L9.515,69.999 L9.515,67.603 L8.353,67.603 L8.353,69.999 ZM4.719,65.603 L6.342,65.603 L11.526,65.603 L28.974,65.603 L28.974,22.498 L4.719,22.498 L4.719,65.603 ZM4.719,20.499 L30.984,20.499 L55.240,20.499 L55.240,7.853 L4.719,7.853 L4.719,20.499 ZM57.963,1.999 L1.995,1.999 L1.995,5.852 L2.708,5.852 L57.251,5.852 L57.963,5.852 L57.963,1.999 ZM26.460,13.176 L33.498,13.176 L33.498,15.176 L26.460,15.176 L26.460,13.176 ZM24.931,38.394 L26.942,38.394 L26.942,45.394 L24.931,45.394 L24.931,38.394 ZM33.016,38.394 L35.027,38.394 L35.027,45.394 L33.016,45.394 L33.016,38.394 Z"/>
    </g>

    <g id="icon-product-wardrobe" viewBox="0 0 52 72">
        <path fill-rule="evenodd" d="M26.999,71.998 L24.999,71.998 L-0.001,71.998 L-0.001,-0.002 L24.999,-0.002 L26.999,-0.002 L51.999,-0.002 L51.999,10.790 L51.999,61.207 L51.999,71.998 L26.999,71.998 ZM24.999,61.207 L24.999,10.790 L24.999,1.999 L1.999,1.999 L1.999,69.999 L24.999,69.999 L24.999,61.207 ZM49.999,1.999 L26.999,1.999 L26.999,8.791 L49.999,8.791 L49.999,1.999 ZM49.999,10.790 L26.999,10.790 L26.999,61.207 L49.999,61.207 L49.999,10.790 ZM49.999,63.206 L26.999,63.206 L26.999,69.999 L49.999,69.999 L49.999,63.206 ZM41.999,67.603 L34.999,67.603 L34.999,65.603 L41.999,65.603 L41.999,67.603 ZM30.874,39.707 L28.874,39.707 L28.874,32.707 L30.874,32.707 L30.874,39.707 ZM41.999,6.395 L34.999,6.395 L34.999,4.394 L41.999,4.394 L41.999,6.395 ZM23.124,39.707 L21.124,39.707 L21.124,32.707 L23.124,32.707 L23.124,39.707 Z"/>
    </g>

    <g id="icon-plane" viewBox="0 0 24 22">
        <path fill-rule="evenodd" d="M22.999,0.998 C22.901,0.914 23.117,0.945 22.999,0.998 L0.999,10.998 C0.884,11.050 0.999,10.934 0.998,11.058 C0.997,11.182 0.885,10.944 0.999,10.998 L6.999,12.998 C7.110,13.052 7.106,13.071 6.999,12.998 L12.999,9.998 L8.999,13.998 C8.933,14.065 8.991,13.906 8.999,13.998 L8.999,20.998 C9.009,21.129 8.873,20.957 8.999,20.998 C9.033,21.009 8.964,20.998 8.999,20.998 C9.093,20.998 8.935,21.070 8.999,20.998 L12.999,15.998 L17.999,17.998 C18.085,18.039 17.911,18.035 17.999,17.998 C18.086,17.961 17.970,18.087 17.999,17.998 L23.999,-0.002 C24.037,-0.124 23.096,1.083 22.999,0.998 Z"/>
    </g>

    <g id="icon-service-installation" data-size="34 50">
        <path fill-rule="evenodd"  d="M29.309,14.923 L29.309,35.076 C32.095,36.502 33.874,39.321 33.874,42.459 C33.874,45.620 32.104,48.469 29.253,49.896 C29.240,49.903 29.225,49.905 29.212,49.911 C29.193,49.919 29.175,49.924 29.156,49.931 C29.044,49.972 28.930,49.999 28.816,49.999 L28.816,49.999 C28.816,49.999 28.815,49.999 28.815,49.999 C28.815,49.999 28.814,49.998 28.814,49.998 C28.699,49.998 28.589,49.971 28.483,49.933 C28.453,49.922 28.425,49.910 28.397,49.896 C28.313,49.856 28.235,49.805 28.165,49.742 C28.152,49.730 28.136,49.722 28.124,49.709 C28.057,49.641 27.997,49.564 27.951,49.475 C27.945,49.464 27.947,49.453 27.942,49.442 C27.916,49.387 27.907,49.325 27.892,49.264 C27.877,49.200 27.855,49.138 27.853,49.073 C27.853,49.062 27.847,49.053 27.847,49.042 L27.847,44.622 C27.847,43.918 27.269,43.345 26.559,43.345 L24.315,43.345 C23.605,43.345 23.027,43.918 23.027,44.622 L23.027,49.042 C23.027,49.053 23.020,49.063 23.020,49.074 C23.018,49.139 22.997,49.200 22.981,49.264 C22.966,49.325 22.957,49.387 22.931,49.443 C22.926,49.454 22.927,49.466 22.922,49.476 C22.876,49.566 22.816,49.642 22.749,49.710 C22.738,49.721 22.725,49.728 22.713,49.739 C22.641,49.805 22.561,49.857 22.474,49.898 C22.448,49.911 22.422,49.922 22.394,49.932 C22.286,49.972 22.174,50.000 22.057,50.000 C21.942,50.000 21.827,49.973 21.714,49.930 C21.697,49.924 21.680,49.919 21.663,49.912 C21.649,49.906 21.634,49.903 21.619,49.896 C18.770,48.465 17.000,45.616 17.000,42.460 C17.000,39.320 18.781,36.499 21.568,35.072 L21.568,14.926 C18.781,13.499 17.000,10.678 17.000,7.539 C17.000,4.383 18.770,1.533 21.619,0.103 C21.630,0.097 21.642,0.098 21.653,0.093 C21.708,0.069 21.767,0.061 21.826,0.046 C21.894,0.029 21.960,0.008 22.028,0.006 C22.038,0.005 22.048,-0.000 22.058,-0.000 C22.103,-0.000 22.142,0.019 22.185,0.025 C22.258,0.035 22.328,0.042 22.396,0.067 C22.454,0.088 22.502,0.122 22.553,0.154 C22.608,0.186 22.662,0.214 22.709,0.257 C22.759,0.302 22.794,0.358 22.834,0.412 C22.861,0.451 22.899,0.479 22.922,0.522 C22.927,0.533 22.926,0.545 22.931,0.555 C22.957,0.611 22.966,0.673 22.981,0.735 C22.997,0.799 23.018,0.860 23.020,0.924 C23.020,0.936 23.027,0.945 23.027,0.957 L23.027,5.376 C23.027,6.080 23.605,6.653 24.315,6.653 L26.559,6.653 C27.269,6.653 27.847,6.080 27.847,5.376 L27.847,0.957 C27.847,0.946 27.853,0.937 27.853,0.926 C27.855,0.861 27.877,0.799 27.892,0.735 C27.907,0.674 27.916,0.612 27.942,0.556 C27.947,0.546 27.946,0.534 27.951,0.524 C27.973,0.481 28.011,0.453 28.039,0.414 C28.078,0.359 28.114,0.303 28.164,0.257 C28.211,0.216 28.264,0.188 28.317,0.156 C28.369,0.124 28.418,0.089 28.478,0.067 C28.543,0.043 28.610,0.037 28.679,0.027 C28.726,0.020 28.767,-0.000 28.815,-0.000 C28.827,-0.000 28.836,0.006 28.847,0.006 C28.911,0.008 28.972,0.029 29.036,0.044 C29.099,0.059 29.163,0.067 29.221,0.094 C29.231,0.099 29.243,0.098 29.253,0.103 C32.104,1.530 33.874,4.379 33.874,7.540 C33.874,10.678 32.095,13.497 29.309,14.923 ZM29.784,2.766 L29.784,5.376 C29.784,7.135 28.337,8.567 26.559,8.567 L24.315,8.567 C22.537,8.567 21.090,7.135 21.090,5.376 L21.090,2.768 C19.736,3.968 18.936,5.682 18.936,7.539 C18.936,10.128 20.497,12.452 22.912,13.462 C23.031,13.511 23.137,13.584 23.226,13.673 C23.262,13.710 23.282,13.758 23.312,13.799 C23.354,13.858 23.403,13.912 23.431,13.980 C23.476,14.087 23.497,14.203 23.500,14.320 C23.500,14.328 23.505,14.335 23.505,14.344 L23.505,35.654 C23.505,35.662 23.500,35.669 23.500,35.678 C23.497,35.795 23.476,35.911 23.431,36.018 C23.403,36.085 23.354,36.139 23.312,36.198 C23.282,36.240 23.262,36.288 23.226,36.324 C23.137,36.414 23.031,36.487 22.912,36.536 C20.497,37.546 18.936,39.870 18.936,42.460 C18.936,44.317 19.736,46.031 21.090,47.231 L21.090,44.622 C21.090,42.863 22.537,41.431 24.315,41.431 L26.559,41.431 C28.337,41.431 29.784,42.863 29.784,44.622 L29.784,47.232 C31.138,46.034 31.937,44.319 31.937,42.459 C31.937,39.871 30.378,37.548 27.965,36.540 C27.846,36.490 27.740,36.418 27.652,36.328 C27.614,36.291 27.595,36.243 27.564,36.201 C27.523,36.142 27.475,36.089 27.446,36.022 C27.402,35.914 27.380,35.798 27.377,35.681 C27.377,35.673 27.372,35.666 27.372,35.658 L27.372,14.341 C27.372,14.333 27.377,14.326 27.377,14.318 C27.380,14.200 27.402,14.084 27.446,13.977 C27.475,13.910 27.523,13.856 27.565,13.797 C27.595,13.755 27.615,13.708 27.652,13.670 C27.741,13.581 27.846,13.508 27.965,13.459 C30.379,12.450 31.937,10.128 31.937,7.540 C31.937,5.680 31.138,3.964 29.784,2.766 ZM9.226,49.999 L4.010,49.999 C2.294,49.999 0.898,48.620 0.898,46.923 L0.898,31.732 C0.898,30.577 1.553,29.581 2.508,29.055 L2.508,28.022 C2.508,26.877 3.289,25.918 4.348,25.612 L4.348,9.164 L2.879,7.901 C2.595,7.657 2.480,7.273 2.584,6.915 L4.386,0.693 C4.504,0.283 4.884,-0.000 5.317,-0.000 L5.619,-0.000 L7.617,-0.000 L7.919,-0.000 C8.351,-0.000 8.732,0.283 8.850,0.693 L10.653,6.915 C10.757,7.273 10.641,7.657 10.357,7.901 L8.888,9.164 L8.888,25.612 C9.947,25.918 10.728,26.877 10.728,28.022 L10.728,29.055 C11.683,29.580 12.339,30.577 12.339,31.732 L12.339,46.923 C12.339,48.620 10.943,49.999 9.226,49.999 ZM5.919,48.085 L7.317,48.085 L7.317,34.475 C7.317,34.474 7.316,34.472 7.316,34.471 C7.316,34.091 7.003,33.780 6.618,33.780 C6.233,33.780 5.919,34.091 5.919,34.471 L5.919,48.085 ZM7.189,1.914 L6.047,1.914 L4.615,6.856 L5.952,8.005 C5.961,8.013 5.964,8.024 5.973,8.031 C6.024,8.078 6.059,8.137 6.100,8.194 C6.132,8.240 6.171,8.282 6.194,8.332 C6.217,8.382 6.222,8.436 6.236,8.489 C6.255,8.558 6.276,8.625 6.279,8.696 C6.279,8.707 6.285,8.716 6.285,8.727 L6.285,25.499 L6.951,25.499 L6.951,8.727 C6.951,8.716 6.957,8.707 6.957,8.696 C6.960,8.625 6.981,8.558 7.000,8.489 C7.014,8.436 7.019,8.382 7.042,8.332 C7.065,8.282 7.104,8.241 7.137,8.194 C7.177,8.137 7.212,8.078 7.263,8.031 C7.272,8.024 7.275,8.013 7.284,8.005 L8.621,6.856 L7.189,1.914 ZM8.791,28.022 C8.791,27.686 8.515,27.413 8.176,27.413 L7.924,27.413 C7.922,27.413 7.921,27.414 7.919,27.414 L5.317,27.414 C5.315,27.414 5.314,27.413 5.312,27.413 L5.061,27.413 C4.721,27.413 4.445,27.686 4.445,28.022 L4.445,28.656 L8.791,28.656 L8.791,28.022 ZM10.402,31.732 C10.402,31.092 9.874,30.570 9.226,30.570 L4.010,30.570 C3.362,30.570 2.835,31.092 2.835,31.732 L2.835,46.923 C2.835,47.554 3.348,48.064 3.982,48.079 L3.982,34.471 C3.982,33.034 5.165,31.866 6.618,31.866 C8.067,31.866 9.247,33.030 9.252,34.461 C9.252,34.465 9.254,34.467 9.254,34.471 L9.254,48.079 C9.888,48.064 10.402,47.554 10.402,46.923 L10.402,31.732 Z"/>

    </g>

    <g id="icon-service-warranty" data-size="56 50">
        <path fill-rule="evenodd"  d="M54.787,32.986 L39.316,32.986 C39.239,32.986 39.171,32.956 39.098,32.942 L39.098,35.217 C39.098,36.489 38.426,37.701 37.330,38.431 L40.244,44.435 C40.426,44.806 40.392,45.248 40.153,45.590 C39.917,45.933 39.521,46.121 39.100,46.084 L35.018,45.739 L32.619,49.457 C32.404,49.791 32.039,49.990 31.640,49.990 C31.224,49.984 30.859,49.777 30.650,49.436 L28.457,45.861 L26.259,49.439 C26.056,49.774 25.681,49.986 25.281,49.992 C25.243,49.998 25.205,50.000 25.167,50.000 C24.842,50.000 24.513,49.805 24.290,49.459 L21.890,45.742 L17.810,46.087 C17.392,46.125 16.993,45.938 16.754,45.590 C16.519,45.251 16.484,44.809 16.664,44.437 L19.581,38.426 C18.467,37.697 17.810,36.514 17.810,35.219 L17.810,32.943 C17.736,32.958 17.667,32.988 17.589,32.988 L2.126,32.988 C1.485,32.988 0.964,32.470 0.964,31.835 L0.964,1.152 C0.964,0.517 1.485,-0.000 2.126,-0.000 L54.787,-0.000 C55.428,-0.000 55.949,0.518 55.949,1.154 L55.949,31.833 C55.949,32.468 55.428,32.986 54.787,32.986 ZM22.392,43.384 C22.419,43.383 22.446,43.383 22.473,43.383 C22.891,43.383 23.248,43.572 23.468,43.911 L25.244,46.661 L27.463,43.045 C27.678,42.698 28.049,42.491 28.457,42.491 C28.864,42.491 29.235,42.698 29.449,43.044 L31.669,46.661 L33.443,43.911 C33.673,43.556 34.085,43.375 34.515,43.384 L34.522,43.384 L37.272,43.619 L34.807,38.538 C34.427,38.508 34.096,38.493 33.822,38.493 C33.387,38.493 33.243,38.531 33.243,38.531 C33.102,38.599 32.352,39.338 31.664,40.196 C30.789,41.074 29.653,41.547 28.447,41.549 C28.445,41.549 28.442,41.549 28.440,41.549 C27.272,41.549 26.142,41.091 25.339,40.291 C24.565,39.338 23.854,38.643 23.646,38.523 C23.549,38.508 23.387,38.491 23.092,38.491 C22.715,38.491 22.335,38.516 22.106,38.535 L19.641,43.616 L22.392,43.384 ZM18.021,29.722 L19.793,31.479 C20.009,31.692 20.133,31.990 20.133,32.294 L20.133,35.214 C20.133,35.701 20.369,36.154 20.771,36.458 C20.910,36.374 21.055,36.322 21.203,36.305 C21.244,36.300 22.223,36.183 23.092,36.183 C23.744,36.183 24.185,36.245 24.523,36.382 C25.389,36.734 26.592,38.158 27.069,38.755 C27.686,39.353 29.144,39.442 29.934,38.656 C30.163,38.362 31.455,36.768 32.388,36.384 C32.722,36.249 33.178,36.185 33.822,36.185 C34.689,36.185 35.669,36.302 35.711,36.307 C35.861,36.324 36.008,36.377 36.150,36.463 C36.543,36.161 36.782,35.696 36.782,35.217 L36.782,32.297 C36.782,31.990 36.902,31.700 37.121,31.481 L38.897,29.720 C39.208,29.422 39.376,29.038 39.381,28.608 C39.383,28.172 39.211,27.758 38.896,27.446 L37.122,25.684 C36.905,25.471 36.782,25.174 36.782,24.870 L36.782,21.950 C36.782,21.072 36.045,20.357 35.140,20.357 L32.196,20.357 C31.894,20.357 31.595,20.235 31.376,20.021 L29.602,18.261 C29.278,17.936 28.897,17.779 28.437,17.779 C28.435,17.779 28.433,17.779 28.431,17.779 C28.008,17.782 27.614,17.949 27.324,18.247 L25.538,20.020 C25.318,20.235 25.019,20.357 24.716,20.357 L21.772,20.357 C20.884,20.357 20.133,21.086 20.133,21.950 L20.133,24.870 C20.133,25.178 20.012,25.468 19.793,25.686 L18.019,27.446 C17.707,27.756 17.536,28.159 17.536,28.582 C17.536,29.007 17.708,29.412 18.021,29.722 ZM53.626,2.308 L3.287,2.308 L3.287,30.683 L15.838,30.683 C15.434,30.058 15.211,29.339 15.211,28.587 C15.211,27.547 15.625,26.564 16.376,25.818 L17.810,24.394 L17.810,21.953 C17.810,19.802 19.588,18.053 21.772,18.053 L24.235,18.053 L25.667,16.632 C26.386,15.894 27.362,15.482 28.411,15.476 C29.501,15.476 30.497,15.887 31.247,16.632 L32.679,18.051 L35.140,18.051 C37.325,18.051 39.103,19.800 39.103,21.950 L39.103,24.392 L40.531,25.819 C41.289,26.566 41.704,27.563 41.696,28.627 C41.691,29.372 41.469,30.074 41.075,30.680 L53.626,30.680 L53.626,2.308 ZM22.732,13.670 L8.994,13.670 C8.354,13.670 7.833,13.153 7.833,12.518 C7.833,11.882 8.354,11.364 8.994,11.364 L22.732,11.364 C23.373,11.364 23.894,11.882 23.894,12.518 C23.894,13.153 23.373,13.670 22.732,13.670 ZM17.008,9.125 L8.994,9.125 C8.354,9.125 7.833,8.608 7.833,7.973 C7.833,7.336 8.354,6.819 8.994,6.819 L17.008,6.819 C17.649,6.819 18.170,7.336 18.170,7.973 C18.170,8.608 17.649,9.125 17.008,9.125 ZM28.457,23.122 C31.533,23.122 34.036,25.607 34.036,28.662 C34.036,31.716 31.533,34.201 28.457,34.201 C25.380,34.201 22.877,31.716 22.877,28.662 C22.877,25.607 25.380,23.122 28.457,23.122 ZM28.457,31.893 C30.253,31.893 31.714,30.444 31.714,28.662 C31.714,26.880 30.253,25.430 28.457,25.430 C26.661,25.430 25.199,26.880 25.199,28.662 C25.199,30.444 26.661,31.893 28.457,31.893 Z"/>
    </g>

    <g id="icon-service-repair" data-size="46 50">
        <path fill-rule="evenodd"  d="M44.576,32.204 L40.748,28.419 L41.808,27.429 C42.456,26.788 42.868,25.857 42.868,24.925 C42.868,23.994 42.456,23.062 41.808,22.422 C41.160,21.781 40.394,21.432 39.511,21.374 C39.570,20.442 39.394,19.452 38.687,18.695 C38.039,18.054 37.155,17.705 36.272,17.647 C36.213,16.774 35.860,15.900 35.212,15.260 C34.564,14.619 33.681,14.270 32.798,14.212 C32.739,13.338 32.385,12.465 31.738,11.824 C31.090,11.184 30.148,10.776 29.205,10.776 C28.263,10.776 27.379,11.125 26.673,11.824 L25.377,13.105 L21.255,9.029 C22.020,7.399 21.726,5.419 20.372,4.138 L17.839,1.634 C16.308,0.121 13.776,-0.054 12.068,1.285 C11.950,1.693 11.832,1.926 11.832,2.217 C11.832,2.508 11.891,2.799 12.127,2.974 L14.836,5.652 L12.775,7.690 L10.007,5.012 C9.830,4.837 9.536,4.721 9.241,4.721 C8.947,4.721 8.711,4.895 8.534,5.070 C7.180,6.758 7.356,9.262 8.888,10.776 L11.420,13.280 C12.716,14.561 14.718,14.852 16.367,14.153 L17.191,14.969 L15.896,16.250 C15.542,16.541 13.069,18.870 12.598,22.946 C12.362,25.275 11.361,26.206 11.302,26.264 L11.243,26.323 L8.033,29.437 L7.062,28.477 C6.650,28.070 6.061,28.070 5.649,28.477 L0.407,33.659 C-0.005,34.067 -0.005,34.649 0.407,35.057 L15.189,49.672 C15.366,49.846 15.660,49.963 15.896,49.963 C16.131,49.963 16.426,49.846 16.602,49.672 L21.844,44.490 C22.256,44.082 22.256,43.500 21.844,43.092 L21.121,42.378 L21.695,41.811 C21.754,41.753 25.142,38.085 27.497,37.852 C31.620,37.444 33.975,34.940 34.270,34.591 L35.624,33.310 L39.511,37.153 C40.218,37.852 41.101,38.201 42.043,38.201 C42.986,38.201 43.869,37.852 44.576,37.153 C45.989,35.756 45.989,33.543 44.576,32.204 ZM15.896,12.115 C14.953,12.814 13.599,12.698 12.775,11.883 L10.242,9.379 C9.712,8.855 9.477,8.098 9.595,7.341 L12.009,9.728 C12.421,10.136 13.010,10.136 13.422,9.728 L16.897,6.293 C17.309,5.885 17.309,5.303 16.897,4.895 L14.482,2.508 C15.248,2.450 16.014,2.683 16.544,3.207 L19.076,5.710 C19.900,6.526 20.018,7.865 19.312,8.796 C19.017,9.204 19.076,9.786 19.488,10.136 C19.547,10.136 19.547,10.194 19.606,10.252 L24.082,14.677 L21.844,16.832 L17.368,12.406 C17.309,12.348 17.309,12.348 17.250,12.290 C16.897,11.883 16.308,11.824 15.896,12.115 ZM15.896,47.576 L2.527,34.358 L6.355,30.573 L19.724,43.791 L15.896,47.576 ZM34.859,31.156 L32.798,33.193 L32.739,33.252 C32.739,33.252 30.736,35.464 27.262,35.872 C24.317,36.163 20.458,40.181 20.222,40.472 L19.708,40.980 L9.445,30.833 L10.344,29.945 C10.638,29.712 14.247,26.148 14.541,23.237 C14.895,19.743 17.132,17.822 17.132,17.822 L17.191,17.763 L18.546,16.424 L20.607,18.462 C20.607,18.753 20.666,18.986 20.901,19.219 C21.314,19.627 21.903,19.627 22.315,19.219 L28.204,13.396 C28.793,12.814 29.853,12.814 30.442,13.396 C30.913,13.862 31.031,14.561 30.736,15.143 C30.560,15.493 30.618,15.958 30.913,16.250 C31.207,16.541 31.679,16.599 32.032,16.424 C32.621,16.133 33.386,16.250 33.799,16.715 C34.270,17.181 34.388,17.880 34.093,18.462 C33.916,18.811 33.975,19.277 34.270,19.568 C34.564,19.860 35.035,19.918 35.389,19.743 C35.978,19.452 36.743,19.568 37.155,20.034 C37.568,20.442 37.509,21.432 37.155,22.072 C36.979,22.422 37.038,22.887 37.332,23.178 C37.627,23.470 38.098,23.528 38.451,23.353 C39.040,23.062 39.805,23.178 40.218,23.644 C40.512,23.935 40.689,24.343 40.689,24.751 C40.689,25.158 40.512,25.566 40.218,25.857 L34.859,31.156 ZM43.280,35.872 C42.691,36.454 41.690,36.454 41.042,35.872 L37.155,31.971 L39.394,29.758 L43.280,33.601 C43.869,34.242 43.869,35.232 43.280,35.872 Z"/>
    </g>

    <g id="icon-service-shipping" data-size="63 47">
        <path fill-rule="evenodd" d="M55.737,42.408 L55.737,38.813 L55.345,38.813 L52.955,38.813 C52.976,39.039 53.000,39.265 53.000,39.488 C53.000,43.630 49.634,47.000 45.497,47.000 C41.360,47.000 37.994,43.630 37.994,39.488 C37.994,39.265 38.018,39.039 38.039,38.813 L37.111,38.813 L37.111,42.408 L22.071,42.408 L22.071,38.813 L21.440,38.813 C21.461,39.039 21.485,39.265 21.485,39.488 C21.485,43.630 18.119,47.000 13.982,47.000 C9.845,47.000 6.479,43.630 6.479,39.488 C6.479,39.265 6.503,39.039 6.525,38.813 L6.343,38.813 L6.343,42.408 L-0.002,42.408 L-0.002,36.813 L1.287,36.813 L1.287,31.565 L-0.002,31.565 L-0.002,-0.000 L36.000,-0.000 L36.000,29.565 L36.997,29.565 L36.997,6.573 L52.134,6.573 L61.147,18.033 L61.209,36.813 L63.000,36.813 L63.000,42.408 L55.737,42.408 ZM45.497,45.000 C48.533,45.000 51.003,42.527 51.003,39.488 C51.003,39.029 50.938,38.556 50.813,38.082 L50.810,38.070 C50.170,35.659 47.985,33.975 45.497,33.975 C43.009,33.975 40.823,35.659 40.183,38.070 C40.056,38.549 39.992,39.026 39.992,39.488 C39.992,42.527 42.461,45.000 45.497,45.000 ZM24.069,38.813 L24.069,40.408 L35.113,40.408 L35.113,38.813 L35.113,35.839 C35.113,35.480 34.822,35.189 34.464,35.189 L24.719,35.189 C24.361,35.189 24.069,35.480 24.069,35.839 L24.069,38.813 ZM13.982,45.000 C17.018,45.000 19.488,42.527 19.488,39.488 C19.488,39.029 19.423,38.556 19.299,38.082 L19.295,38.070 C18.657,35.659 16.471,33.975 13.982,33.975 C11.493,33.975 9.308,35.659 8.669,38.070 C8.541,38.549 8.477,39.025 8.477,39.488 C8.477,42.527 10.947,45.000 13.982,45.000 ZM1.996,40.408 L4.346,40.408 L4.346,38.813 L1.996,38.813 L1.996,40.408 ZM34.002,2.000 L1.996,2.000 L1.996,29.565 L34.002,29.565 L34.002,2.000 ZM36.000,31.565 L3.284,31.565 L3.284,36.813 L6.343,36.813 L6.976,36.813 C7.008,36.731 7.054,36.658 7.088,36.577 C7.155,36.416 7.231,36.262 7.308,36.108 C7.410,35.907 7.517,35.712 7.635,35.524 C7.727,35.375 7.823,35.232 7.925,35.091 C8.054,34.913 8.190,34.744 8.333,34.579 C8.446,34.448 8.561,34.320 8.683,34.197 C8.837,34.042 9.000,33.899 9.167,33.758 C9.297,33.648 9.426,33.537 9.564,33.436 C9.743,33.305 9.933,33.189 10.123,33.073 C10.265,32.987 10.404,32.897 10.552,32.821 C10.759,32.713 10.975,32.627 11.193,32.539 C11.338,32.480 11.479,32.413 11.629,32.363 C11.876,32.280 12.133,32.224 12.391,32.168 C12.521,32.139 12.646,32.098 12.778,32.077 C13.172,32.012 13.573,31.976 13.982,31.976 C14.391,31.976 14.793,32.012 15.187,32.077 C15.318,32.098 15.443,32.139 15.572,32.168 C15.830,32.224 16.088,32.280 16.336,32.363 C16.485,32.413 16.625,32.479 16.769,32.538 C16.988,32.626 17.205,32.713 17.413,32.821 C17.560,32.897 17.697,32.986 17.838,33.071 C18.030,33.188 18.221,33.305 18.402,33.438 C18.538,33.537 18.665,33.646 18.794,33.755 C18.963,33.897 19.128,34.043 19.284,34.199 C19.404,34.320 19.516,34.447 19.628,34.576 C19.773,34.743 19.911,34.914 20.042,35.095 C20.142,35.233 20.236,35.374 20.328,35.520 C20.447,35.711 20.555,35.908 20.657,36.111 C20.734,36.264 20.809,36.416 20.876,36.575 C20.910,36.656 20.956,36.731 20.988,36.813 L22.071,36.813 L22.071,35.839 L22.071,33.189 L24.719,33.189 L34.464,33.189 L37.111,33.189 L37.111,35.839 L37.111,36.813 L38.491,36.813 C38.521,36.734 38.566,36.663 38.599,36.585 C38.668,36.419 38.745,36.261 38.826,36.102 C38.926,35.905 39.031,35.713 39.148,35.526 C39.241,35.377 39.337,35.233 39.440,35.091 C39.569,34.913 39.705,34.744 39.848,34.579 C39.961,34.448 40.075,34.321 40.196,34.199 C40.352,34.042 40.516,33.897 40.685,33.755 C40.814,33.647 40.941,33.538 41.077,33.438 C41.259,33.305 41.450,33.187 41.643,33.070 C41.783,32.986 41.919,32.897 42.065,32.822 C42.274,32.713 42.493,32.625 42.713,32.537 C42.856,32.479 42.995,32.412 43.143,32.363 C43.392,32.280 43.651,32.223 43.910,32.167 C44.038,32.139 44.162,32.098 44.293,32.077 C44.686,32.012 45.088,31.976 45.497,31.976 C45.906,31.976 46.307,32.012 46.701,32.077 C46.833,32.098 46.958,32.139 47.089,32.168 C47.346,32.224 47.602,32.280 47.850,32.363 C48.000,32.413 48.141,32.480 48.286,32.539 C48.503,32.627 48.720,32.713 48.927,32.821 C49.075,32.897 49.214,32.987 49.356,33.074 C49.546,33.189 49.735,33.305 49.914,33.436 C50.053,33.538 50.182,33.649 50.313,33.759 C50.479,33.899 50.641,34.042 50.795,34.196 C50.918,34.320 51.033,34.450 51.148,34.582 C51.289,34.745 51.424,34.912 51.551,35.087 C51.655,35.231 51.753,35.378 51.848,35.529 C51.962,35.713 52.066,35.903 52.165,36.097 C52.247,36.259 52.325,36.420 52.395,36.587 C52.428,36.664 52.472,36.735 52.502,36.813 L53.799,36.813 L49.742,31.565 L36.997,31.565 L36.000,31.565 ZM59.151,18.728 L51.164,8.573 L38.995,8.573 L38.995,29.565 L50.722,29.565 L56.324,36.813 L59.212,36.813 L59.151,18.728 ZM61.003,38.813 L57.870,38.813 L57.735,38.813 L57.735,40.408 L61.003,40.408 L61.003,38.813 ZM49.448,22.147 L40.523,22.147 L40.523,9.988 L50.329,9.988 L57.735,19.700 L57.735,24.436 L51.159,24.436 L49.448,22.147 ZM55.737,22.436 L55.737,20.376 L49.340,11.988 L42.521,11.988 L42.521,20.147 L50.449,20.147 L52.160,22.436 L55.737,22.436 ZM13.982,35.451 C16.205,35.451 18.015,37.263 18.015,39.488 C18.015,41.714 16.205,43.524 13.982,43.524 C11.759,43.524 9.950,41.714 9.950,39.488 C9.950,37.263 11.759,35.451 13.982,35.451 ZM13.982,41.524 C15.104,41.524 16.017,40.611 16.017,39.488 C16.017,38.365 15.104,37.451 13.982,37.451 C12.860,37.451 11.947,38.365 11.947,39.488 C11.947,40.611 12.860,41.524 13.982,41.524 ZM45.497,35.451 C47.720,35.451 49.528,37.263 49.528,39.488 C49.528,41.714 47.720,43.524 45.497,43.524 C43.274,43.524 41.465,41.714 41.465,39.488 C41.465,37.263 43.274,35.451 45.497,35.451 ZM45.497,41.524 C46.619,41.524 47.531,40.611 47.531,39.488 C47.531,38.365 46.619,37.451 45.497,37.451 C44.375,37.451 43.462,38.365 43.462,39.488 C43.462,40.611 44.375,41.524 45.497,41.524 Z"/>
    </g>

    <g id="icon-service-design" data-size="37 50">
        <path fill-rule="evenodd"  d="M20.689,50.000 L20.689,-0.000 L36.970,-0.000 L36.970,50.000 L20.689,50.000 ZM34.763,2.222 L22.897,2.222 L22.897,8.889 L26.440,8.889 L26.440,11.111 L22.897,11.111 L22.897,14.905 L26.440,14.905 L26.440,17.128 L22.897,17.128 L22.897,20.878 L26.440,20.878 L26.440,23.100 L22.897,23.100 L22.897,26.900 L26.440,26.900 L26.440,29.122 L22.897,29.122 L22.897,32.872 L26.440,32.872 L26.440,35.094 L22.897,35.094 L22.897,38.889 L26.440,38.889 L26.440,41.111 L22.897,41.111 L22.897,47.778 L34.763,47.778 L34.763,2.222 ZM8.314,50.000 L7.762,50.000 C0.957,50.000 0.957,43.585 0.957,43.585 L0.957,12.636 L8.043,1.359 L15.124,12.636 L15.124,43.585 C15.124,43.585 15.124,50.000 8.314,50.000 ZM7.762,47.510 C9.418,47.510 11.294,47.386 12.304,45.647 C12.707,44.957 12.862,45.051 12.917,41.815 L3.165,41.815 C3.165,43.380 2.707,47.510 7.762,47.510 ZM9.109,39.338 L9.109,17.511 L8.077,16.654 L6.973,17.703 L6.973,39.338 L9.109,39.338 ZM3.165,39.338 L4.765,39.338 L4.765,17.653 L3.165,15.946 L3.165,39.338 ZM8.043,5.663 L6.885,7.463 L9.147,7.463 L8.043,5.663 ZM10.731,9.947 L5.350,9.947 L3.507,12.903 L5.913,15.480 L7.332,14.139 C7.724,13.769 8.290,13.751 8.700,14.095 L10.218,15.337 L12.481,12.729 L10.731,9.947 ZM12.917,15.741 L11.316,17.604 L11.316,39.338 L12.939,39.338 L12.944,39.338 C12.955,35.295 12.922,28.266 12.917,15.741 Z"/>
    </g>

    <g id="icon-service-moving" data-size="57 52">
        <path fill-rule="evenodd"  d="M28.507,0.965 C28.497,0.965 28.487,0.966 28.477,0.966 C28.318,0.966 28.160,0.994 28.012,1.050 L1.057,7.996 L1.050,7.997 C0.395,8.157 -0.025,8.786 0.085,9.443 L0.085,41.080 C0.085,41.618 0.428,42.098 0.941,42.279 L28.054,51.853 C28.395,51.979 28.774,51.956 29.097,51.792 L29.176,51.763 L29.182,51.763 L56.030,42.282 C56.543,42.100 56.886,41.620 56.886,41.082 L56.892,9.400 C56.962,8.865 56.683,8.344 56.194,8.101 C56.188,8.098 56.182,8.095 56.176,8.092 C56.149,8.079 56.122,8.067 56.094,8.056 C56.073,8.048 56.052,8.040 56.031,8.032 C56.016,8.028 56.002,8.023 55.987,8.018 C55.961,8.010 55.934,8.003 55.908,7.996 L28.966,1.052 C28.819,0.996 28.664,0.967 28.507,0.967 L28.507,0.965 ZM28.488,3.560 L50.440,9.218 L42.063,11.333 L21.473,5.368 L28.488,3.560 ZM16.622,6.618 L37.165,12.570 L28.489,14.760 L6.535,9.218 L16.622,6.618 ZM2.667,10.871 L27.198,17.064 L27.198,48.845 L2.667,40.183 L2.667,10.871 L2.667,10.871 ZM54.310,10.871 L54.304,40.183 L29.780,48.843 L29.780,17.064 L40.753,14.294 L40.748,22.054 C40.737,22.758 41.306,23.337 42.019,23.347 C42.732,23.358 43.319,22.796 43.330,22.092 C43.330,22.080 43.330,22.068 43.330,22.056 L43.336,13.642 L54.310,10.871 L54.310,10.871 Z"/>
    </g>

    <g id="icon-service-choice" data-size="49 49">
        <path fill-rule="evenodd"  d="M48.091,19.314 L44.583,19.314 L44.583,16.947 C44.583,16.476 44.230,16.087 43.759,16.044 L40.375,15.730 C40.010,14.403 39.476,13.124 38.789,11.925 L40.960,9.310 C41.263,8.947 41.239,8.422 40.904,8.089 L36.472,3.656 C36.139,3.324 35.612,3.298 35.250,3.600 L32.626,5.779 C31.426,5.096 30.148,4.567 28.824,4.207 L28.509,0.817 C28.466,0.348 28.078,-0.007 27.605,-0.007 L21.338,-0.007 C20.866,-0.007 20.478,0.348 20.435,0.817 L20.119,4.220 C18.797,4.585 17.524,5.116 16.332,5.800 L13.701,3.616 C13.339,3.316 12.813,3.340 12.478,3.672 L8.046,8.104 C7.714,8.438 7.689,8.962 7.990,9.325 L10.183,11.966 C9.503,13.160 8.975,14.432 8.615,15.749 L5.207,16.065 C4.738,16.109 4.383,16.498 4.383,16.970 L4.383,19.314 L0.903,19.314 C0.403,19.314 -0.005,19.721 -0.005,20.221 L-0.005,24.368 C-0.005,24.672 0.146,24.954 0.398,25.122 L15.976,38.571 C16.433,38.917 16.848,39.748 16.848,40.313 L16.848,48.090 C16.848,48.591 17.256,48.998 17.756,48.998 L31.238,48.998 C31.739,48.998 32.146,48.591 32.146,48.090 L32.146,40.313 C32.146,39.746 32.562,38.916 33.013,38.575 L48.598,25.122 C48.850,24.954 49.000,24.672 49.000,24.368 L49.000,20.221 C49.000,19.721 48.592,19.314 48.091,19.314 ZM6.199,17.797 L9.422,17.497 C9.812,17.461 10.134,17.180 10.222,16.799 C10.583,15.230 11.202,13.736 12.061,12.361 C12.269,12.027 12.240,11.601 11.989,11.299 L9.915,8.802 L13.177,5.542 L15.667,7.609 C15.970,7.859 16.398,7.889 16.729,7.678 C18.104,6.816 19.598,6.192 21.170,5.826 C21.552,5.737 21.831,5.415 21.867,5.026 L22.166,1.809 L26.777,1.809 L27.075,5.013 C27.111,5.405 27.393,5.727 27.775,5.815 C29.351,6.176 30.849,6.796 32.230,7.658 C32.563,7.866 32.990,7.836 33.292,7.586 L35.773,5.525 L39.034,8.787 L36.980,11.261 C36.728,11.563 36.701,11.990 36.910,12.324 C37.777,13.704 38.402,15.203 38.768,16.780 C38.857,17.161 39.179,17.442 39.568,17.477 L42.766,17.775 L42.766,19.314 L34.700,19.314 C34.300,14.030 29.882,9.851 24.497,9.851 C19.112,9.851 14.694,14.030 14.294,19.314 L6.199,19.314 L6.199,17.797 ZM31.583,19.314 C31.195,15.747 28.167,12.962 24.497,12.962 C20.828,12.962 17.800,15.747 17.411,19.314 L16.110,19.314 C16.504,15.031 20.113,11.666 24.497,11.666 C28.881,11.666 32.490,15.031 32.884,19.314 L31.583,19.314 ZM29.734,19.314 L19.261,19.314 C19.641,16.754 21.833,14.777 24.497,14.777 C27.161,14.777 29.354,16.754 29.734,19.314 ZM30.331,40.313 L30.331,47.182 L18.664,47.182 L18.664,40.313 C18.664,40.103 18.634,39.884 18.590,39.665 L30.405,39.665 C30.361,39.884 30.331,40.103 30.331,40.313 ZM31.984,37.079 L31.950,37.103 C31.684,37.299 31.440,37.559 31.222,37.849 L17.773,37.849 C17.556,37.559 17.313,37.301 17.048,37.104 L3.882,25.277 L15.163,25.277 L15.322,25.277 L45.113,25.277 L31.984,37.079 ZM47.184,23.461 L15.322,23.461 L15.163,23.461 L1.811,23.461 L1.811,21.129 L47.184,21.129 L47.184,23.461 Z"/>
    </g>

    <g id="icon-print" data-size="26 27">
        <path fill-rule="evenodd" d="M23.423,21.171 L20.805,21.171 L20.805,25.962 C20.805,26.474 20.395,26.890 19.892,26.890 L6.428,26.890 C5.925,26.890 5.515,26.474 5.515,25.962 L5.515,21.171 L2.564,21.171 C1.148,21.171 -0.003,20.001 -0.003,18.562 L-0.003,8.582 C-0.003,7.222 1.026,6.101 2.335,5.983 L2.335,1.854 C2.335,1.342 2.745,0.926 3.248,0.926 L22.740,0.926 C23.243,0.926 23.653,1.342 23.653,1.854 L23.653,5.983 C24.963,6.101 25.992,7.222 25.992,8.582 L25.992,18.562 C25.992,20.001 24.840,21.171 23.423,21.171 ZM7.340,25.035 L18.979,25.035 L18.979,17.695 L7.340,17.695 L7.340,25.035 ZM21.828,2.781 L4.161,2.781 L4.161,5.972 L21.828,5.972 L21.828,2.781 ZM24.167,8.582 C24.167,8.166 23.833,7.827 23.423,7.827 L2.564,7.827 C2.155,7.827 1.822,8.166 1.822,8.582 L1.822,18.562 C1.822,18.978 2.155,19.317 2.564,19.317 L5.515,19.317 L5.515,17.695 L4.662,17.695 C4.158,17.695 3.749,17.279 3.749,16.767 C3.749,16.256 4.158,15.840 4.662,15.840 L21.327,15.840 C21.830,15.840 22.239,16.256 22.239,16.767 C22.239,17.279 21.830,17.695 21.327,17.695 L20.805,17.695 L20.805,19.317 L23.423,19.317 C23.833,19.317 24.167,18.978 24.167,18.562 L24.167,8.582 ZM20.214,13.706 C19.097,13.706 18.188,12.782 18.188,11.647 C18.188,10.512 19.097,9.589 20.214,9.589 C21.330,9.589 22.239,10.512 22.239,11.647 C22.239,12.782 21.330,13.706 20.214,13.706 ZM20.214,11.444 C20.103,11.444 20.013,11.535 20.013,11.648 C20.013,11.760 20.103,11.852 20.214,11.852 C20.324,11.852 20.414,11.760 20.414,11.648 C20.414,11.535 20.324,11.444 20.214,11.444 ZM15.021,13.706 C13.904,13.706 12.996,12.782 12.996,11.647 C12.996,10.512 13.904,9.589 15.021,9.589 C16.138,9.589 17.048,10.512 17.048,11.647 C17.048,12.782 16.138,13.706 15.021,13.706 ZM15.021,11.444 C14.911,11.444 14.821,11.535 14.821,11.648 C14.821,11.760 14.911,11.852 15.021,11.852 C15.132,11.852 15.222,11.760 15.222,11.648 C15.222,11.535 15.132,11.444 15.021,11.444 Z"/>
    </g>

    <g id="icon-pdf" data-size="20 27">
        <path fill-rule="evenodd"  d="M0.766,0.001 C0.348,0.047 -0.004,0.460 -0.002,0.901 L-0.002,26.100 C-0.002,26.571 0.407,27.000 0.856,27.000 L19.149,27.000 C19.597,27.000 20.006,26.571 20.006,26.100 L20.006,5.101 C20.007,4.865 19.915,4.631 19.756,4.464 L15.754,0.264 C15.595,0.097 15.372,0.001 15.147,0.001 L0.856,0.001 C0.826,-0.000 0.796,-0.000 0.766,0.001 ZM1.713,1.801 L13.718,1.801 L13.718,5.701 C13.718,6.172 14.126,6.601 14.575,6.601 L18.291,6.601 L18.291,25.200 L1.713,25.200 L1.713,1.801 ZM15.433,2.467 L17.657,4.801 L15.433,4.801 L15.433,2.467 ZM9.145,9.301 C8.430,9.301 7.803,9.639 7.420,10.107 C7.038,10.575 6.858,11.141 6.858,11.701 C6.858,12.543 7.244,13.143 7.617,13.791 C7.835,14.169 8.063,14.552 8.269,14.907 C7.901,16.041 7.450,17.321 7.010,18.338 C6.505,18.462 5.916,18.599 5.339,18.816 C4.824,19.010 4.307,19.275 3.875,19.725 C3.443,20.176 3.142,20.853 3.142,21.600 C3.142,22.096 3.299,22.595 3.642,23.006 C3.986,23.417 4.540,23.700 5.143,23.700 C6.445,23.700 7.376,22.745 7.983,21.797 C8.392,21.159 8.684,20.500 8.886,19.913 C9.754,19.615 10.729,19.325 11.592,19.097 C12.337,19.828 13.271,20.700 14.575,20.700 C15.973,20.700 16.862,19.531 16.862,18.478 C16.862,17.935 16.681,17.369 16.281,16.922 C15.882,16.475 15.265,16.200 14.575,16.200 C13.771,16.200 13.035,16.478 12.360,16.763 C11.785,16.084 11.103,15.192 10.627,14.447 C10.736,14.173 10.843,13.887 10.949,13.613 C11.194,12.978 11.431,12.398 11.431,11.701 C11.431,11.190 11.281,10.658 10.913,10.173 C10.546,9.688 9.901,9.301 9.145,9.301 ZM9.145,11.101 C9.412,11.101 9.482,11.168 9.573,11.288 C9.664,11.408 9.716,11.631 9.716,11.701 C9.716,11.823 9.587,12.346 9.359,12.938 C9.331,13.010 9.299,13.107 9.270,13.182 C9.208,13.079 9.139,12.952 9.082,12.854 C8.745,12.267 8.573,11.727 8.573,11.701 C8.573,11.595 8.630,11.394 8.725,11.279 C8.819,11.163 8.909,11.101 9.145,11.101 ZM9.681,16.097 C10.040,16.616 10.344,17.035 10.726,17.494 C10.126,17.658 9.589,17.811 8.975,18.010 C9.234,17.341 9.459,16.762 9.681,16.097 ZM14.575,18.000 C14.872,18.000 14.962,18.074 15.031,18.150 C15.099,18.227 15.147,18.349 15.147,18.478 C15.147,18.586 15.166,18.900 14.575,18.900 C14.304,18.900 13.887,18.646 13.432,18.300 C13.907,18.126 14.315,18.000 14.575,18.000 ZM6.831,20.260 C6.740,20.441 6.669,20.629 6.563,20.794 C6.114,21.496 5.617,21.900 5.143,21.900 C4.981,21.900 4.966,21.860 4.928,21.816 C4.892,21.772 4.857,21.684 4.857,21.600 C4.857,21.288 4.921,21.166 5.081,21.000 C5.239,20.834 5.534,20.658 5.920,20.513 C6.189,20.411 6.516,20.338 6.831,20.260 Z"/>
    </g>

    <g id="icon-save" data-size="26 26">
        <path fill-rule="evenodd" d="M2.275,0.000 C1.031,0.000 -0.000,1.032 -0.000,2.275 L-0.000,23.725 C-0.000,24.968 1.031,26.000 2.275,26.000 L23.724,26.000 C24.968,26.000 25.999,24.968 25.999,23.725 L25.999,6.175 C26.000,5.917 25.897,5.668 25.715,5.485 L20.515,0.285 C20.331,0.102 20.083,-0.000 19.824,0.000 L2.275,0.000 ZM2.275,1.951 L4.875,1.951 L4.875,10.075 C4.875,10.614 5.311,11.050 5.849,11.050 L18.849,11.050 C19.388,11.050 19.824,10.614 19.824,10.075 L19.824,2.357 L24.049,6.582 L24.049,23.725 C24.049,23.922 23.921,24.050 23.724,24.050 L2.275,24.050 C2.078,24.050 1.950,23.922 1.950,23.725 L1.950,2.275 C1.950,2.079 2.078,1.951 2.275,1.951 ZM6.824,1.951 L17.874,1.951 L17.874,9.100 L6.824,9.100 L6.824,1.951 ZM13.000,13.325 C10.678,13.325 8.775,15.228 8.775,17.550 C8.775,19.872 10.678,21.775 13.000,21.775 C15.321,21.775 17.224,19.872 17.224,17.550 C17.224,15.228 15.321,13.325 13.000,13.325 ZM13.000,15.275 C14.267,15.275 15.274,16.282 15.274,17.550 C15.274,18.818 14.267,19.825 13.000,19.825 C11.732,19.825 10.725,18.818 10.725,17.550 C10.725,16.282 11.732,15.275 13.000,15.275 Z"/>
    </g>

    <g id="icon-assembly" data-size="16 16">
        <path fill-rule="evenodd" d="M15.789,6.729 C16.186,5.400 16.041,3.997 15.381,2.778 L14.828,1.747 L11.415,5.154 L10.868,4.608 L14.281,1.201 L13.249,0.649 C12.272,0.123 11.175,-0.077 10.077,0.073 C8.700,0.260 7.479,0.971 6.637,2.076 C5.827,3.139 5.463,4.444 5.604,5.766 L0.962,10.401 C-0.316,11.676 -0.316,13.753 0.962,15.028 L0.974,15.040 C2.251,16.316 4.332,16.316 5.610,15.040 L10.251,10.406 C11.302,10.520 12.345,10.315 13.277,9.811 C14.499,9.152 15.392,8.057 15.789,6.729 ZM7.383,5.906 C7.276,5.362 7.302,4.795 7.458,4.263 C7.943,2.605 9.567,1.583 11.230,1.797 L8.415,4.607 L11.423,7.609 L14.234,4.803 C14.378,5.858 14.024,6.931 13.254,7.698 C12.429,8.521 11.256,8.875 10.111,8.645 L9.656,8.557 L4.386,13.818 C3.782,14.421 2.800,14.421 2.195,13.818 C1.591,13.214 1.590,12.233 2.194,11.630 L7.472,6.361 L7.383,5.906 Z"/>
    </g>

    <g id="icon-filter-all" data-size="31 31">
        <path fill-rule="evenodd" d="M21.883,31.000 L21.883,21.928 L30.991,21.928 L30.991,31.000 L21.883,31.000 ZM29.136,23.776 L23.738,23.776 L23.738,29.152 L29.136,29.152 L29.136,23.776 ZM21.883,10.962 L30.991,10.962 L30.991,20.035 L21.883,20.035 L21.883,10.962 ZM23.738,18.187 L29.136,18.187 L29.136,12.810 L23.738,12.810 L23.738,18.187 ZM21.883,-0.003 L30.991,-0.003 L30.991,9.069 L21.883,9.069 L21.883,-0.003 ZM23.738,7.221 L29.136,7.221 L29.136,1.845 L23.738,1.845 L23.738,7.221 ZM10.940,21.928 L20.048,21.928 L20.048,31.000 L10.940,31.000 L10.940,21.928 ZM12.795,29.152 L18.193,29.152 L18.193,23.776 L12.795,23.776 L12.795,29.152 ZM10.940,10.962 L20.048,10.962 L20.048,20.035 L10.940,20.035 L10.940,10.962 ZM12.795,18.187 L18.193,18.187 L18.193,12.810 L12.795,12.810 L12.795,18.187 ZM10.940,-0.003 L20.048,-0.003 L20.048,9.069 L10.940,9.069 L10.940,-0.003 ZM12.795,7.221 L18.193,7.221 L18.193,1.845 L12.795,1.845 L12.795,7.221 ZM-0.003,21.928 L9.105,21.928 L9.105,31.000 L-0.003,31.000 L-0.003,21.928 ZM1.852,29.152 L7.250,29.152 L7.250,23.776 L1.852,23.776 L1.852,29.152 ZM-0.003,10.962 L9.105,10.962 L9.105,20.035 L-0.003,20.035 L-0.003,10.962 ZM1.852,18.187 L7.250,18.187 L7.250,12.810 L1.852,12.810 L1.852,18.187 ZM-0.003,-0.003 L9.105,-0.003 L9.105,9.069 L-0.003,9.069 L-0.003,-0.003 ZM1.852,7.221 L7.250,7.221 L7.250,1.845 L1.852,1.845 L1.852,7.221 Z"/>
    </g>

    <g id="icon-filter-chair" data-size="20 31">
        <path fill-rule="evenodd"  d="M19.973,17.932 L19.973,17.543 C19.973,17.261 19.916,16.992 19.813,16.747 L19.813,13.235 C19.813,12.726 19.401,12.313 18.894,12.313 C18.386,12.313 17.975,12.726 17.975,13.235 L17.975,15.500 C17.961,15.500 17.948,15.496 17.933,15.496 L17.435,15.496 L17.435,3.116 C17.435,1.391 16.043,-0.007 14.326,-0.007 L6.603,-0.007 C4.885,-0.007 3.493,1.391 3.493,3.116 L3.493,15.496 L2.999,15.496 C2.983,15.496 2.968,15.500 2.953,15.501 L2.953,13.235 C2.953,12.726 2.541,12.313 2.034,12.313 C1.527,12.313 1.115,12.726 1.115,13.235 L1.115,16.762 C1.016,17.003 0.960,17.266 0.960,17.543 L0.960,17.932 C0.960,19.063 1.873,19.979 2.999,19.979 L9.548,19.979 L9.548,19.980 L9.548,22.267 L9.017,22.267 L9.017,23.944 L1.638,27.270 C1.175,27.478 0.969,28.025 1.176,28.489 C1.311,28.790 1.589,28.974 1.892,29.016 C1.374,29.050 0.960,29.472 0.960,30.001 C0.960,30.552 1.405,30.998 1.953,30.998 C2.502,30.998 2.947,30.552 2.947,30.001 C2.947,29.487 2.555,29.080 2.058,29.025 C2.169,29.019 2.283,29.002 2.391,28.953 L9.548,25.728 L9.548,26.330 C9.548,26.817 9.927,27.205 10.404,27.240 C9.886,27.274 9.473,27.696 9.473,28.224 C9.473,28.775 9.918,29.222 10.466,29.222 C11.015,29.222 11.460,28.775 11.460,28.224 C11.460,27.696 11.047,27.274 10.529,27.240 C11.005,27.206 11.385,26.817 11.385,26.330 L11.385,25.728 L18.542,28.953 C18.650,29.002 18.764,29.019 18.875,29.025 C18.378,29.079 17.986,29.487 17.986,30.001 C17.986,30.552 18.430,30.998 18.980,30.998 C19.528,30.998 19.973,30.552 19.973,30.001 C19.973,29.472 19.559,29.050 19.041,29.016 C19.344,28.974 19.621,28.790 19.756,28.489 C19.964,28.025 19.757,27.478 19.295,27.270 L11.915,23.944 L11.915,22.267 L11.385,22.267 L11.385,19.980 L11.385,19.979 L17.933,19.979 C19.060,19.979 19.973,19.063 19.973,17.932 ZM5.331,3.116 C5.331,2.412 5.901,1.839 6.603,1.839 L14.326,1.839 C15.027,1.839 15.597,2.412 15.597,3.116 L15.597,15.421 L5.331,15.421 L5.331,3.116 ZM2.953,18.115 L2.953,17.361 C2.970,17.356 2.981,17.341 2.999,17.341 L17.933,17.341 C17.950,17.341 17.960,17.355 17.975,17.358 L17.975,18.117 C17.960,18.121 17.950,18.134 17.933,18.134 L2.999,18.134 C2.981,18.134 2.970,18.120 2.953,18.115 Z"/>
    </g>

    <g id="icon-" data-size="20 31">
        <path fill-rule="evenodd"  d="M17.561,19.232 L18.843,19.232 L18.843,14.932 L17.312,14.932 L17.309,12.841 L18.621,-0.008 L2.019,-0.008 L3.328,12.791 L3.328,14.932 L1.797,14.932 L1.797,19.232 L3.079,19.232 L0.834,30.997 L2.737,30.997 L4.981,19.232 L15.659,19.232 L17.902,30.996 L19.805,30.997 L17.561,19.232 ZM16.974,16.771 L16.974,17.394 L3.666,17.394 L3.666,16.771 L16.974,16.771 ZM16.555,1.830 L15.532,11.850 L5.108,11.850 L4.085,1.830 L16.555,1.830 ZM15.441,13.688 L15.441,14.932 L5.198,14.932 L5.198,13.688 L15.441,13.688 Z"/>
    </g>

    <g id="icon-sort-arrow-up" data-size="7 7">
        <path fill-rule="evenodd" d="M-0.005,3.653 L0.701,4.389 L2.998,1.989 L2.998,6.988 L3.996,6.988 L3.996,1.989 L6.294,4.389 L6.999,3.653 L3.497,-0.007 L-0.005,3.653 Z"/>
    </g>

    <g id="icon-sort-arrow-down" data-size="7 7">
        <path fill-rule="evenodd"  d="M7.002,3.345 L6.296,2.608 L3.999,5.008 L3.999,0.009 L3.001,0.009 L3.001,5.008 L0.703,2.608 L-0.002,3.345 L3.500,7.004 L7.002,3.345 Z"/>
    </g>

    <g id="icon-favorite" data-size="13 20">
        <path fill-rule="evenodd" d="M10.446,19.964 L2.308,19.964 C1.259,19.964 0.405,19.139 0.405,18.125 L0.405,5.419 C0.405,4.895 0.637,4.395 1.042,4.046 L5.112,0.548 C5.807,-0.049 6.944,-0.049 7.641,0.548 L11.710,4.046 C12.116,4.392 12.349,4.893 12.349,5.419 L12.349,18.125 C12.349,19.139 11.495,19.964 10.446,19.964 ZM10.598,5.346 L6.365,1.714 L2.155,5.353 L2.155,18.291 L10.617,18.272 L10.598,5.346 ZM4.693,5.317 C5.278,4.750 6.129,4.520 6.955,4.708 L6.955,4.709 C7.803,4.906 8.483,5.563 8.688,6.382 C8.887,7.179 8.652,7.997 8.060,8.569 C7.606,9.006 7.005,9.241 6.377,9.241 C6.185,9.241 5.990,9.219 5.796,9.173 C4.950,8.977 4.271,8.322 4.066,7.503 C3.867,6.707 4.101,5.889 4.693,5.317 ZM6.205,7.528 C6.434,7.585 6.663,7.527 6.820,7.374 L6.821,7.373 C6.981,7.219 7.041,7.003 6.985,6.779 C6.935,6.578 6.753,6.400 6.554,6.356 C6.504,6.345 6.456,6.340 6.409,6.340 C6.182,6.340 5.988,6.457 5.934,6.510 C5.772,6.666 5.712,6.883 5.768,7.106 C5.818,7.306 6.002,7.484 6.205,7.528 ZM6.175,6.744 C6.228,6.692 6.299,6.664 6.377,6.664 L6.425,6.664 L6.636,6.789 L6.653,6.855 C6.689,6.997 6.633,7.088 6.580,7.141 C6.540,7.179 6.475,7.221 6.380,7.221 C6.351,7.221 6.319,7.217 6.284,7.208 L6.240,7.196 L6.197,7.155 L6.132,7.155 L6.100,7.029 C6.064,6.887 6.121,6.796 6.175,6.744 Z"/>
    </g>

    <g id="icon-new" data-size="16 15">
        <path fill-rule="evenodd" d="M14.729,8.665 C14.495,8.961 14.252,9.268 14.149,9.597 C14.040,9.944 14.060,10.351 14.079,10.744 C14.104,11.244 14.127,11.716 13.901,12.035 C13.673,12.359 13.227,12.482 12.755,12.612 C12.389,12.713 12.009,12.819 11.728,13.030 C11.451,13.237 11.239,13.574 11.035,13.900 C10.768,14.327 10.515,14.729 10.140,14.854 C9.813,14.969 9.368,14.809 8.913,14.630 C8.550,14.488 8.177,14.340 7.814,14.340 C7.452,14.340 7.078,14.488 6.716,14.630 C6.260,14.809 5.816,14.969 5.488,14.854 C5.113,14.729 4.860,14.326 4.593,13.900 C4.389,13.574 4.177,13.237 3.901,13.029 C3.619,12.819 3.240,12.713 2.873,12.612 C2.401,12.482 1.955,12.359 1.727,12.035 C1.502,11.716 1.525,11.244 1.549,10.744 C1.569,10.351 1.589,9.944 1.480,9.598 C1.376,9.268 1.133,8.961 0.899,8.664 C0.600,8.284 0.290,7.892 0.290,7.475 C0.290,7.057 0.600,6.665 0.899,6.286 C1.133,5.988 1.376,5.682 1.479,5.353 C1.589,5.006 1.569,4.599 1.549,4.206 C1.525,3.706 1.502,3.233 1.727,2.914 C1.955,2.591 2.401,2.468 2.873,2.337 C3.240,2.236 3.619,2.131 3.901,1.920 C4.177,1.713 4.389,1.376 4.593,1.049 C4.860,0.624 5.113,0.221 5.488,0.096 C5.815,-0.019 6.260,0.141 6.716,0.319 C7.078,0.462 7.452,0.609 7.814,0.609 C8.177,0.609 8.550,0.462 8.913,0.319 C9.368,0.141 9.813,-0.019 10.140,0.096 C10.515,0.221 10.768,0.624 11.036,1.050 C11.240,1.376 11.451,1.713 11.728,1.921 C12.009,2.131 12.389,2.236 12.755,2.337 C13.228,2.468 13.674,2.591 13.902,2.914 C14.127,3.233 14.104,3.706 14.079,4.206 C14.060,4.599 14.040,5.006 14.149,5.353 C14.252,5.682 14.495,5.988 14.729,6.285 C15.029,6.665 15.338,7.057 15.338,7.475 C15.338,7.892 15.029,8.284 14.729,8.665 ZM14.054,7.401 C13.981,7.295 13.877,7.164 13.796,7.062 C13.522,6.714 13.181,6.281 13.008,5.734 C12.831,5.172 12.859,4.604 12.883,4.121 C12.888,4.009 12.894,3.873 12.895,3.759 L12.896,3.667 L12.810,3.638 C12.699,3.602 12.562,3.564 12.445,3.531 C12.018,3.413 11.486,3.267 11.023,2.920 C10.564,2.574 10.266,2.101 10.028,1.721 C9.967,1.622 9.886,1.492 9.815,1.391 L9.762,1.316 L9.676,1.346 C9.571,1.383 9.440,1.435 9.339,1.475 C8.919,1.640 8.397,1.845 7.814,1.845 C7.231,1.845 6.708,1.640 6.273,1.468 C6.176,1.431 6.054,1.382 5.951,1.347 L5.865,1.317 L5.813,1.392 C5.743,1.494 5.662,1.622 5.597,1.725 C5.359,2.104 5.062,2.577 4.606,2.919 C4.142,3.267 3.611,3.413 3.161,3.537 C3.056,3.566 2.924,3.603 2.818,3.638 L2.733,3.667 L2.733,3.759 C2.734,3.880 2.741,4.029 2.747,4.144 C2.769,4.602 2.797,5.171 2.620,5.735 C2.448,6.281 2.106,6.714 1.829,7.066 C1.751,7.164 1.648,7.296 1.574,7.402 L1.523,7.475 L1.574,7.548 C1.648,7.653 1.751,7.785 1.832,7.887 C2.106,8.235 2.448,8.668 2.620,9.216 C2.797,9.779 2.769,10.348 2.747,10.806 C2.741,10.920 2.734,11.070 2.733,11.191 L2.733,11.284 L2.819,11.312 C2.933,11.349 3.075,11.388 3.183,11.418 C3.611,11.536 4.142,11.683 4.606,12.030 C5.065,12.375 5.362,12.848 5.611,13.247 C5.671,13.343 5.747,13.463 5.814,13.558 L5.867,13.634 L5.952,13.603 C6.058,13.565 6.189,13.515 6.288,13.476 C6.708,13.310 7.231,13.104 7.814,13.104 C8.397,13.104 8.919,13.310 9.356,13.482 C9.453,13.519 9.575,13.568 9.678,13.603 L9.764,13.633 L9.816,13.557 C9.886,13.456 9.967,13.328 10.030,13.226 C10.269,12.846 10.566,12.374 11.023,12.031 C11.486,11.683 12.018,11.536 12.454,11.416 C12.562,11.386 12.699,11.348 12.810,11.312 L12.895,11.283 L12.895,11.191 C12.894,11.077 12.888,10.939 12.881,10.802 C12.859,10.345 12.831,9.778 13.008,9.216 C13.181,8.668 13.522,8.235 13.796,7.887 L13.799,7.884 C13.878,7.785 13.981,7.653 14.054,7.548 L14.106,7.475 L14.054,7.401 ZM10.151,8.361 C9.993,8.521 9.920,8.751 9.958,8.976 L10.242,10.688 C10.264,10.819 10.231,10.947 10.149,11.046 C10.023,11.202 9.802,11.254 9.619,11.155 L8.127,10.345 C8.031,10.295 7.923,10.267 7.814,10.267 C7.705,10.267 7.597,10.295 7.501,10.347 L6.011,11.154 C5.824,11.254 5.606,11.202 5.479,11.046 C5.397,10.947 5.364,10.819 5.386,10.688 L5.671,8.975 C5.708,8.750 5.635,8.520 5.477,8.361 L4.271,7.149 C4.151,7.029 4.110,6.859 4.162,6.695 C4.214,6.531 4.343,6.418 4.509,6.393 L6.176,6.144 C6.395,6.111 6.585,5.969 6.684,5.763 L7.428,4.206 C7.503,4.051 7.647,3.959 7.814,3.959 C7.981,3.959 8.126,4.051 8.199,4.206 L8.945,5.763 C9.044,5.969 9.234,6.111 9.452,6.144 L11.119,6.393 C11.285,6.418 11.415,6.531 11.466,6.695 C11.518,6.859 11.477,7.029 11.357,7.149 L10.151,8.361 ZM9.174,7.348 C8.644,7.236 8.187,6.893 7.921,6.408 L7.814,6.214 L7.708,6.408 C7.441,6.893 6.985,7.236 6.454,7.348 L6.243,7.392 L6.388,7.555 C6.754,7.967 6.928,8.521 6.868,9.075 L6.843,9.295 L7.039,9.204 C7.522,8.978 8.107,8.978 8.589,9.204 L8.785,9.295 L8.760,9.075 C8.700,8.521 8.875,7.967 9.240,7.555 L9.385,7.392 L9.174,7.348 Z"/>
    </g>

    <g id="icon-opt" data-size="39 53">
        <path fill-rule="evenodd"  fill="rgb(0, 0, 0)"  d="M37.998,52.998 L16.959,52.998 C16.413,52.998 15.970,52.552 15.970,52.004 L15.970,51.224 L6.150,48.618 C5.891,48.548 5.667,48.372 5.537,48.137 C5.407,47.899 5.379,47.615 5.460,47.358 L5.963,45.748 L0.630,42.795 C0.155,42.532 -0.021,41.929 0.237,41.451 L13.739,16.396 C13.885,16.123 14.156,15.932 14.462,15.886 L25.703,14.187 C24.778,12.679 23.344,9.847 23.344,6.780 C23.344,3.424 23.829,-0.007 27.419,-0.007 C31.010,-0.007 31.494,3.424 31.494,6.780 C31.494,10.103 29.852,13.117 28.825,14.676 L38.594,22.078 C38.841,22.265 38.988,22.562 38.988,22.872 L38.988,52.004 C38.988,52.552 38.544,52.998 37.998,52.998 ZM2.445,41.528 L6.569,43.812 L13.973,20.138 L2.445,41.528 ZM15.244,17.780 L14.787,18.628 C14.808,18.619 14.830,18.610 14.853,18.601 L18.256,17.324 L15.244,17.780 ZM15.999,20.294 L8.119,45.581 C8.105,45.625 8.083,45.657 8.065,45.683 C8.059,45.693 8.051,45.703 8.046,45.713 L7.658,46.961 L15.970,49.168 L15.970,22.872 C15.970,22.562 16.117,22.265 16.364,22.078 L21.387,18.271 L15.999,20.294 ZM29.516,6.780 C29.516,1.982 28.254,1.982 27.419,1.982 C26.584,1.982 25.322,1.982 25.322,6.780 C25.322,9.356 26.590,11.840 27.419,13.188 C28.248,11.841 29.516,9.360 29.516,6.780 ZM37.010,23.368 L27.479,16.146 L17.948,23.368 L17.948,51.010 L37.010,51.010 L37.010,23.368 ZM33.512,34.350 L21.446,34.350 L21.446,32.360 L33.512,32.360 L33.512,34.350 ZM33.512,39.857 L21.446,39.857 L21.446,37.869 L33.512,37.869 L33.512,39.857 ZM33.512,44.979 L21.446,44.979 L21.446,42.990 L33.512,42.990 L33.512,44.979 ZM27.478,27.080 C25.583,27.080 24.040,25.529 24.040,23.623 C24.040,21.716 25.583,20.164 27.478,20.164 C29.375,20.164 30.918,21.716 30.918,23.623 C30.918,25.529 29.375,27.080 27.478,27.080 ZM27.478,22.153 C26.673,22.153 26.018,22.812 26.018,23.623 C26.018,24.433 26.673,25.092 27.478,25.092 C28.284,25.092 28.940,24.433 28.940,23.623 C28.940,22.812 28.284,22.153 27.478,22.153 Z"/>
    </g>

    <g id="icon-enter" data-size="37 44">
        <path fill-rule="evenodd"  fill="rgb(0, 0, 0)" d="M36.990,20.444 L26.833,20.444 L29.739,23.344 L28.330,24.749 L23.018,19.448 L28.330,14.148 L29.739,15.552 L26.832,18.451 L36.990,18.451 L36.990,20.444 ZM24.107,1.984 L9.069,1.984 L20.422,4.653 L20.422,36.936 L24.107,36.936 L24.107,26.056 L26.113,28.057 L26.113,38.903 L20.396,38.903 L20.396,44.006 L0.002,39.219 L0.002,-0.008 L26.113,-0.008 L26.113,10.840 L24.107,12.841 L24.107,1.984 ZM2.008,2.501 L2.008,37.647 L18.164,41.330 L18.442,41.392 L18.442,6.247 L2.286,2.563 L2.008,2.501 Z"/>
    </g>

    <g id="icon-delay" data-size="56 45">
        <path fill-rule="evenodd"  d="M50.469,32.226 L26.492,32.226 L26.482,32.457 C26.151,39.465 20.340,44.955 13.251,44.955 C5.945,44.955 0.000,39.068 0.000,31.833 C0.000,25.354 4.884,19.772 11.361,18.846 L11.571,18.817 L11.571,6.414 C11.571,3.394 14.052,0.937 17.101,0.937 L50.469,0.937 C53.518,0.937 55.999,3.394 55.999,6.414 L55.999,26.749 C55.999,29.769 53.518,32.226 50.469,32.226 ZM2.117,31.833 C2.117,37.912 7.112,42.858 13.251,42.858 C19.390,42.858 24.384,37.912 24.384,31.833 C24.384,25.753 19.390,20.807 13.251,20.807 C7.112,20.807 2.117,25.753 2.117,31.833 ZM53.922,6.414 C53.922,4.496 52.405,2.994 50.469,2.994 L17.101,2.994 C15.164,2.994 13.647,4.496 13.647,6.414 L13.647,9.198 L53.922,9.198 L53.922,6.414 ZM53.922,11.255 L13.647,11.255 L13.647,18.719 L13.881,18.730 C20.209,19.022 25.459,23.745 26.363,29.961 L26.394,30.169 L50.469,30.169 C52.405,30.169 53.922,28.667 53.922,26.749 L53.922,11.255 ZM47.260,27.777 C46.688,27.777 46.093,27.622 45.443,27.305 L45.335,27.253 L45.227,27.305 C44.567,27.627 43.990,27.777 43.410,27.777 C41.068,27.777 39.163,25.890 39.163,23.572 C39.163,21.252 41.068,19.365 43.410,19.365 C43.990,19.365 44.568,19.515 45.227,19.837 L45.335,19.889 L45.444,19.837 C46.102,19.515 46.679,19.365 47.260,19.365 C49.602,19.365 51.507,21.252 51.507,23.572 C51.507,25.890 49.602,27.777 47.260,27.777 ZM47.260,21.423 C46.789,21.423 46.367,21.568 45.968,21.870 C45.595,22.152 45.075,22.153 44.701,21.869 C44.303,21.568 43.880,21.423 43.410,21.423 C42.193,21.423 41.240,22.366 41.240,23.572 C41.240,24.777 42.193,25.721 43.410,25.721 C43.881,25.721 44.303,25.574 44.702,25.273 C45.075,24.990 45.595,24.990 45.968,25.273 C46.367,25.574 46.789,25.721 47.260,25.721 C48.477,25.721 49.430,24.777 49.430,23.572 C49.430,22.366 48.477,21.423 47.260,21.423 ZM13.251,39.215 C9.140,39.215 5.795,35.903 5.795,31.833 C5.795,27.761 9.140,24.449 13.251,24.449 C17.362,24.449 20.706,27.761 20.706,31.833 C20.706,35.903 17.362,39.215 13.251,39.215 ZM13.251,26.506 C10.285,26.506 7.872,28.896 7.872,31.833 C7.872,34.769 10.285,37.159 13.251,37.159 C16.216,37.159 18.629,34.769 18.629,31.833 C18.629,28.896 16.216,26.506 13.251,26.506 ZM15.176,32.861 L13.251,32.861 C12.678,32.861 12.212,32.399 12.212,31.833 L12.212,29.285 C12.200,28.748 12.598,28.300 13.137,28.241 C13.182,28.236 13.225,28.234 13.273,28.235 C13.551,28.240 13.809,28.353 14.001,28.552 C14.193,28.750 14.296,29.011 14.289,29.290 L14.289,30.804 L15.208,30.804 C15.486,30.808 15.745,30.919 15.938,31.115 C16.132,31.312 16.236,31.572 16.232,31.848 C16.228,32.122 16.117,32.378 15.918,32.570 C15.719,32.763 15.428,32.876 15.176,32.861 Z"/>
    </g>

    <g id="icon-filter-stol" data-size="35 33">
        <path fill-rule="evenodd"  d="M34.967,15.252 L33.300,15.252 L33.300,32.806 L31.473,32.806 L31.473,31.726 L21.911,31.726 L21.911,32.806 L20.085,32.806 L20.085,15.252 L4.967,15.252 L4.967,32.594 L3.140,32.594 L3.140,15.252 L0.953,15.252 L0.953,10.901 L7.521,10.901 L6.749,5.435 L9.095,5.435 C8.792,5.196 8.605,4.829 8.605,4.424 C8.605,4.393 8.615,4.365 8.617,4.335 C8.405,4.491 8.159,4.603 7.878,4.603 C7.166,4.603 6.587,4.011 6.587,3.285 C6.587,2.558 7.166,1.968 7.878,1.968 C8.158,1.968 8.405,2.079 8.617,2.235 C8.615,2.206 8.605,2.180 8.605,2.151 C8.605,1.424 9.185,0.832 9.896,0.832 C10.602,0.832 11.177,1.414 11.188,2.132 L11.283,2.001 L11.209,2.189 C11.413,2.049 11.649,1.972 11.895,1.972 C12.607,1.972 13.186,2.563 13.186,3.290 C13.186,4.016 12.607,4.607 11.895,4.607 C11.647,4.607 11.409,4.529 11.204,4.387 L11.266,4.548 L11.188,4.442 C11.182,4.840 10.996,5.199 10.697,5.435 L13.025,5.435 L12.253,10.901 L34.967,10.901 L34.967,15.252 ZM21.911,29.863 L31.473,29.863 L31.473,26.200 L21.911,26.200 L21.911,29.863 ZM21.911,24.336 L31.473,24.336 L31.473,20.647 L21.911,20.647 L21.911,24.336 ZM21.911,18.782 L31.473,18.782 L31.473,15.252 L21.911,15.252 L21.911,18.782 ZM9.150,3.188 C9.152,3.222 9.169,3.250 9.169,3.285 C9.169,3.321 9.152,3.351 9.148,3.386 C9.194,3.353 9.235,3.314 9.285,3.287 C9.235,3.260 9.195,3.221 9.150,3.188 ZM10.560,3.255 C10.542,3.266 10.523,3.277 10.505,3.287 C10.522,3.296 10.539,3.306 10.556,3.316 L10.570,3.280 L10.560,3.255 ZM10.582,3.241 L10.584,3.245 L10.588,3.237 C10.586,3.238 10.584,3.239 10.582,3.241 ZM10.589,3.331 L10.586,3.336 C10.589,3.337 10.591,3.339 10.593,3.340 L10.589,3.331 ZM8.858,7.299 L9.289,10.351 L10.485,10.351 L10.916,7.299 L8.858,7.299 ZM33.141,12.764 L2.779,12.764 L2.779,13.389 L33.141,13.389 L33.141,12.764 ZM24.738,16.192 L28.647,16.192 L28.647,18.055 L24.738,18.055 L24.738,16.192 ZM24.738,21.626 L28.647,21.626 L28.647,23.489 L24.738,23.489 L24.738,21.626 ZM24.738,27.179 L28.647,27.179 L28.647,29.042 L24.738,29.042 L24.738,27.179 Z"/>

    </g>

    <g id="icon-filter-mjagkie-kresla" data-size="32 31">
        <path fill-rule="evenodd" d="M27.053,11.633 L26.503,-0.000 L5.748,-0.000 L5.266,11.633 L0.689,11.633 L0.689,29.531 L2.092,29.531 L2.092,31.000 L5.530,31.000 L5.530,29.531 L26.824,29.531 L26.824,31.000 L30.262,31.000 L30.262,29.531 L31.665,29.531 L31.665,11.633 L27.053,11.633 ZM29.714,13.560 L29.714,27.603 L27.372,27.603 L27.372,13.560 L29.714,13.560 ZM7.022,16.333 L7.620,1.927 L24.640,1.927 L25.322,16.333 L7.022,16.333 ZM6.957,20.721 L6.957,18.319 L25.387,18.319 L25.387,20.721 L6.957,20.721 ZM6.963,27.603 L6.963,22.649 L25.392,22.649 L25.392,27.603 L6.963,27.603 ZM4.982,13.560 L4.982,27.603 L2.639,27.603 L2.639,13.560 L4.982,13.560 Z"/>
    </g>

    <g id="icon-filter-stulja-kresla" data-size="20 31">
        <path fill-rule="evenodd"  d="M17.247,19.236 L18.529,19.236 L18.529,14.936 L16.997,14.936 L16.995,12.845 L18.308,-0.004 L1.705,-0.004 L3.014,12.795 L3.014,14.936 L1.483,14.936 L1.483,19.236 L2.764,19.236 L0.520,31.001 L2.423,31.001 L4.666,19.236 L15.345,19.236 L17.588,31.000 L19.491,31.001 L17.247,19.236 ZM16.660,16.775 L16.660,17.398 L3.352,17.398 L3.352,16.775 L16.660,16.775 ZM16.241,1.834 L15.217,11.854 L4.794,11.854 L3.771,1.834 L16.241,1.834 ZM15.127,13.692 L15.127,14.936 L4.884,14.936 L4.884,13.692 L15.127,13.692 Z"/>

    </g>

    <g id="icon-filter-divany" data-size="41 26">
        <path fill-rule="evenodd"  d="M36.854,9.694 L36.284,-0.000 L5.272,-0.000 L4.547,9.694 L0.639,9.694 L0.639,24.775 L1.782,24.775 L1.782,26.000 L4.744,26.000 L4.744,24.775 L36.556,24.775 L36.556,26.000 L39.519,26.000 L39.519,24.775 L40.662,24.775 L40.662,9.694 L36.854,9.694 ZM38.909,11.467 L38.909,23.003 L37.166,23.003 L37.166,11.467 L38.909,11.467 ZM21.537,17.268 L21.537,15.432 L35.398,15.432 L35.398,17.268 L21.537,17.268 ZM21.537,13.611 L21.537,1.773 L34.634,1.773 L35.330,13.611 L21.537,13.611 ZM19.784,1.773 L19.784,13.611 L6.013,13.611 L6.898,1.773 L19.784,1.773 ZM19.784,15.432 L19.784,17.268 L5.907,17.268 L5.907,15.432 L19.784,15.432 ZM5.914,23.003 L5.914,19.041 L35.406,19.041 L35.406,23.003 L5.914,23.003 ZM4.134,11.467 L4.134,23.003 L2.392,23.003 L2.392,11.467 L4.134,11.467 Z"/>
    </g>

    <g id="icon-filter-shkaf" data-size="24 31">
        <path fill-rule="evenodd"  d="M0.862,31.000 L0.862,-0.001 L23.835,-0.001 L23.835,31.000 L0.862,31.000 ZM11.419,1.833 L2.720,1.833 L2.720,29.167 L11.419,29.167 L11.419,1.833 ZM21.976,1.833 L13.277,1.833 L13.277,3.663 L21.976,3.663 L21.976,1.833 ZM21.976,5.497 L13.277,5.497 L13.277,25.504 L21.976,25.504 L21.976,5.497 ZM21.976,27.337 L13.277,27.337 L13.277,29.167 L21.976,29.167 L21.976,27.337 ZM15.758,17.544 L13.900,17.544 L13.900,13.628 L15.758,13.628 L15.758,17.544 ZM10.796,17.544 L8.938,17.544 L8.938,13.628 L10.796,13.628 L10.796,17.544 Z"/>

    </g>

    <g id="icon-filter-tumba" data-size="27 31">
        <path fill-rule="evenodd"  d="M25.840,4.272 L25.840,29.169 L24.326,29.169 L24.326,31.000 L21.162,31.000 L21.162,29.169 L6.796,29.169 L6.796,31.000 L3.632,31.000 L3.632,29.169 L2.118,29.169 L2.118,4.272 L0.984,4.272 L0.984,-0.000 L26.974,-0.000 L26.974,4.272 L25.840,4.272 ZM14.900,27.335 L23.997,27.335 L23.997,10.375 L14.900,10.375 L14.900,27.335 ZM3.961,27.335 L13.058,27.335 L13.058,10.375 L3.961,10.375 L3.961,27.335 ZM3.961,8.542 L23.997,8.542 L23.997,4.272 L3.961,4.272 L3.961,8.542 ZM25.131,1.833 L2.826,1.833 L2.826,2.439 L25.131,2.439 L25.131,1.833 ZM12.011,5.490 L15.947,5.490 L15.947,7.324 L12.011,7.324 L12.011,5.490 ZM10.537,15.998 L12.379,15.998 L12.379,19.915 L10.537,19.915 L10.537,15.998 ZM15.579,15.998 L17.421,15.998 L17.421,19.915 L15.579,19.915 L15.579,15.998 Z"/>
    </g>

    <g id="icon-filter-stellag" data-size="21 31">
        <path fill-rule="evenodd"  d="M0.914,-0.000 L0.914,29.785 L1.691,29.785 L1.691,31.000 L5.174,31.000 L5.174,29.785 L16.632,29.785 L16.632,31.000 L20.115,31.000 L20.115,29.785 L20.892,29.785 L20.892,-0.000 L0.914,-0.000 ZM5.245,6.198 L5.245,3.699 L5.716,3.699 L5.716,6.198 L5.245,6.198 ZM7.408,6.198 L7.408,3.699 L7.824,3.699 L7.824,6.198 L7.408,6.198 ZM3.387,2.244 L3.387,6.986 L2.772,6.986 L2.772,1.839 L19.034,1.839 L19.034,6.986 L9.643,6.986 L9.643,2.244 L3.387,2.244 ZM15.545,10.671 L15.545,13.170 L15.063,13.170 L15.063,10.671 L15.545,10.671 ZM17.337,10.671 L17.337,13.170 L16.778,13.170 L16.778,10.671 L17.337,10.671 ZM13.778,9.289 L13.778,13.973 L2.772,13.973 L2.772,8.825 L19.034,8.825 L19.034,13.973 L18.569,13.973 L18.569,9.289 L13.778,9.289 ZM5.355,18.793 L5.355,18.374 L7.880,18.374 L7.880,18.793 L5.355,18.793 ZM5.355,20.769 L5.355,20.343 L7.880,20.343 L7.880,20.769 L5.355,20.769 ZM3.496,16.978 L3.496,20.960 L2.772,20.960 L2.772,15.812 L19.034,15.812 L19.034,20.960 L9.739,20.960 L9.739,16.978 L3.496,16.978 ZM14.050,27.532 L14.050,25.033 L16.576,25.033 L16.576,27.532 L14.050,27.532 ZM12.192,23.194 L12.192,27.947 L2.772,27.947 L2.772,22.799 L19.034,22.799 L19.034,27.947 L18.434,27.947 L18.434,23.194 L12.192,23.194 Z"/>
    </g>

    <g id="icon-filter-peregovornaja" data-size="35 31">
        <path fill-rule="evenodd"  d="M31.032,-0.000 L31.032,11.554 L32.890,11.554 L32.890,16.607 L27.867,16.607 L27.867,12.772 L29.354,12.772 L29.354,10.786 L20.389,10.786 L15.324,10.786 L6.359,10.786 L6.359,12.772 L7.845,12.772 L7.845,16.607 L2.822,16.607 L2.822,11.554 L4.680,11.554 L4.680,-0.000 L0.869,-0.000 L0.869,31.000 L2.822,31.000 L2.822,20.368 L7.845,20.368 L7.845,30.996 L10.023,30.996 L10.023,20.368 L10.622,20.368 L10.622,31.000 L12.575,31.000 L12.575,16.607 L10.023,16.607 L10.023,12.772 L15.324,12.772 L20.389,12.772 L25.689,12.772 L25.689,16.607 L23.138,16.607 L23.138,31.000 L25.091,31.000 L25.091,20.368 L25.689,20.368 L25.689,30.996 L27.867,30.996 L27.867,20.368 L32.890,20.368 L32.890,31.000 L34.843,31.000 L34.843,-0.000 L31.032,-0.000 ZM2.411,9.626 L2.411,1.928 L3.087,1.928 L3.087,9.626 L2.411,9.626 ZM7.843,18.630 L2.822,18.630 L2.822,18.253 L7.843,18.253 L7.843,18.630 ZM10.622,18.210 L10.622,18.654 L10.023,18.654 L10.023,18.210 L10.622,18.210 ZM25.689,18.654 L25.091,18.654 L25.091,18.210 L25.689,18.210 L25.689,18.654 ZM32.890,18.630 L27.870,18.630 L27.870,18.253 L32.890,18.253 L32.890,18.630 ZM33.301,9.626 L32.625,9.626 L32.625,1.928 L33.301,1.928 L33.301,9.626 Z"/>
    </g>

    <g id="icon-filter-all" data-size="31 32">
        <path fill-rule="evenodd"  d="M21.883,31.000 L21.883,21.928 L30.991,21.928 L30.991,31.000 L21.883,31.000 ZM29.136,23.776 L23.738,23.776 L23.738,29.152 L29.136,29.152 L29.136,23.776 ZM21.883,10.963 L30.991,10.963 L30.991,20.034 L21.883,20.034 L21.883,10.963 ZM23.738,18.187 L29.136,18.187 L29.136,12.810 L23.738,12.810 L23.738,18.187 ZM21.883,-0.003 L30.991,-0.003 L30.991,9.069 L21.883,9.069 L21.883,-0.003 ZM23.738,7.221 L29.136,7.221 L29.136,1.845 L23.738,1.845 L23.738,7.221 ZM10.940,21.928 L20.049,21.928 L20.049,31.000 L10.940,31.000 L10.940,21.928 ZM12.795,29.152 L18.193,29.152 L18.193,23.776 L12.795,23.776 L12.795,29.152 ZM10.940,10.963 L20.049,10.963 L20.049,20.034 L10.940,20.034 L10.940,10.963 ZM12.795,18.187 L18.193,18.187 L18.193,12.810 L12.795,12.810 L12.795,18.187 ZM10.940,-0.003 L20.049,-0.003 L20.049,9.069 L10.940,9.069 L10.940,-0.003 ZM12.795,7.221 L18.193,7.221 L18.193,1.845 L12.795,1.845 L12.795,7.221 ZM-0.003,21.928 L9.105,21.928 L9.105,31.000 L-0.003,31.000 L-0.003,21.928 ZM1.852,29.152 L7.251,29.152 L7.251,23.776 L1.852,23.776 L1.852,29.152 ZM-0.003,10.963 L9.105,10.963 L9.105,20.034 L-0.003,20.034 L-0.003,10.963 ZM1.852,18.187 L7.251,18.187 L7.251,12.810 L1.852,12.810 L1.852,18.187 ZM-0.003,-0.003 L9.105,-0.003 L9.105,9.069 L-0.003,9.069 L-0.003,-0.003 ZM1.852,7.221 L7.251,7.221 L7.251,1.845 L1.852,1.845 L1.852,7.221 Z"/>
    </g>

    <g id="icon-filter-" data-size="26 26">

    </g>

    <symbol id="heart" viewBox="0 0 20 19">
        <path stroke="#c25f28" stroke-width="2" style="fill:currentColor;" d="M24.85,10.126c2.018-4.783,6.628-8.125,11.99-8.125c7.223,0,12.425,6.179,13.079,13.543
	c0,0,0.353,1.828-0.424,5.119c-1.058,4.482-3.545,8.464-6.898,11.503L24.85,48L7.402,32.165c-3.353-3.038-5.84-7.021-6.898-11.503
	c-0.777-3.291-0.424-5.119-0.424-5.119C0.734,8.179,5.936,2,13.159,2C18.522,2,22.832,5.343,24.85,10.126z"/>
    </symbol>

</svg>
